Temps;Force;Course_Traverse;Contrainte
0;0.006319682;6.67E-05;3.14E-05
0.01;0.006418228;0.0005666667;3.19E-05
0.02;0.006392797;0.002233333;3.18E-05
0.03;0.006281535;0.004366667;3.12E-05
0.04;0.006338755;0.006633333;3.15E-05
0.05;0.006710688;0.008766667;3.34E-05
0.06;0.007206599;0.0109;3.58E-05
0.07;0.007610321;0.01293333;3.79E-05
0.08;0.008020401;0.01496667;3.99E-05
0.09;0.008640289;0.01703333;4.30E-05
0.1;0.009504954;0.01903333;4.73E-05
0.11;0.01046181;0.02106667;5.20E-05
0.12;0.01128833;0.02306667;5.61E-05
0.13;0.01194636;0.0251;5.94E-05
0.14;0.01263301;0.02713333;6.28E-05
0.15;0.01356443;0.0291;6.75E-05
0.16;0.01464526;0.03106667;7.28E-05
0.17;0.01560529;0.03303333;7.76E-05
0.18;0.01637459;0.03496667;8.14E-05
0.19;0.01713753;0.03696667;8.52E-05
0.2;0.01808802;0.03903333;9.00E-05
0.21;0.01915614;0.04106667;9.53E-05
0.22;0.02010981;0.0431;0.000100018
0.23;0.02090454;0.04506667;0.0001039707
0.24;0.02172152;0.04706667;0.000108034
0.25;0.02273878;0.04906667;0.0001130934
0.26;0.02384504;0.0511;0.0001185955
0.27;0.02483368;0.05316667;0.0001235126
0.28;0.02567609;0.05523333;0.0001277024
0.29;0.02658844;0.05723333;0.00013224
0.3;0.02766927;0.05923333;0.0001376157
0.31;0.02876917;0.06123333;0.0001430861
0.32;0.02967199;0.06323333;0.0001475764
0.33;0.03044128;0.0653;0.0001514025
0.34;0.03135045;0.06733333;0.0001559244
0.35;0.03253937;0.0693;0.0001618375
0.36;0.0338014;0.0713;0.0001681143
0.37;0.03482819;0.0733;0.0001732212
0.38;0.03560384;0.0753;0.000177079
0.39;0.03641129;0.0773;0.0001810949
0.4;0.03748894;0.0793;0.0001864547
0.41;0.03869374;0.0813;0.0001924469
0.42;0.03974279;0.08333334;0.0001976644
0.43;0.04058838;0.0853;0.00020187
0.44;0.04143079;0.0872;0.0002060598
0.45;0.04245758;0.08916667;0.0002111667
0.46;0.04359245;0.0912;0.0002168111
0.47;0.04465739;0.09326667;0.0002221076
0.48;0.04560788;0.0953;0.000226835
0.49;0.04658381;0.0973;0.0002316889
0.5;0.04764875;0.09923334;0.0002369854
0.51;0.04873912;0.1012;0.0002424085
0.52;0.04977862;0.1032;0.0002475785
0.53;0.0507768;0.1051667;0.0002525431
0.54;0.05180995;0.1071667;0.0002576815
0.55;0.05287488;0.1092;0.0002629781
0.56;0.053943;0.1111667;0.0002682905
0.57;0.05495071;0.1131333;0.0002733024
0.58;0.05593936;0.1150667;0.0002782195
0.59;0.05699794;0.117;0.0002834845
0.6;0.05812327;0.119;0.0002890814
0.61;0.05922318;0.1210333;0.0002945519
0.62;0.06026586;0.1231;0.0002997378
0.63;0.06129265;0.1251;0.0003048446
0.64;0.0623544;0.1270333;0.0003101254
0.65;0.06344477;0.1289667;0.0003155484
0.66;0.06453196;0.131;0.0003209556
0.67;0.06559372;0.1330667;0.0003262364
0.68;0.06666502;0.1351333;0.0003315646
0.69;0.0678285;0.1372333;0.0003373513
0.7;0.06907145;0.1392667;0.0003435332
0.71;0.07029533;0.1413;0.0003496203
0.72;0.071462;0.1432667;0.0003554228
0.73;0.07262865;0.1452333;0.0003612253
0.74;0.07384618;0.1472667;0.0003672808
0.75;0.07511457;0.1493333;0.0003735892
0.76;0.07635752;0.1513667;0.0003797711
0.77;0.07750193;0.1533667;0.000385463
0.78;0.07856369;0.1553333;0.0003907437
0.79;0.07967631;0.1573333;0.0003962774
0.8;0.08090337;0.1593;0.0004023804
0.81;0.08219719;0.1613333;0.0004088153
0.82;0.08349737;0.1633333;0.0004152818
0.83;0.084788;0.1653667;0.0004217009
0.84;0.08611044;0.1673333;0.0004282781
0.85;0.08749644;0.1693333;0.0004351716
0.86;0.0889651;0.1712667;0.0004424761
0.87;0.09050369;0.1732333;0.0004501284
0.88;0.09207726;0.1752333;0.0004579547
0.89;0.09366354;0.1773333;0.0004658442
0.9;0.09524664;0.1793333;0.0004737179
0.91;0.09686788;0.1813;0.0004817813
0.92;0.09858767;0.1832667;0.0004903348
0.93;0.1004442;0.1851667;0.0004995682
0.94;0.1024405;0.1871;0.0005094973
0.95;0.1045609;0.1891;0.000520043
0.96;0.1067956;0.1911;0.0005311579
0.97;0.1091448;0.1931;0.0005428419
0.98;0.1116021;0.1951333;0.0005550635
0.99;0.1141834;0.1971333;0.0005679018
1;0.1169014;0.1991;0.0005814199
1.01;0.1197561;0.2010667;0.0005956178
1.02;0.1227188;0.2030333;0.0006103533
1.03;0.1257928;0.2050667;0.0006256421
1.04;0.1289908;0.2071;0.0006415477
1.05;0.1323223;0.2090667;0.0006581172
1.06;0.1357778;0.2110333;0.0006753033
1.07;0.1393731;0.2130667;0.0006931851
1.08;0.1431179;0.2150667;0.00071181
1.09;0.1470184;0.2171333;0.0007312097
1.1;0.151097;0.2192;0.0007514947
1.11;0.1553535;0.2212333;0.0007726651
1.12;0.1597563;0.2232333;0.0007945629
1.13;0.1642482;0.2252333;0.0008169033
1.14;0.1688067;0.2272;0.0008395757
1.15;0.173502;0.2292333;0.000862928
1.16;0.1784198;0.2313;0.000887387
1.17;0.1834869;0.2333667;0.0009125891
1.18;0.1885668;0.2353667;0.0009378545
1.19;0.1937167;0.2373333;0.0009634678
1.2;0.1991272;0.2393;0.0009903774
1.21;0.2048906;0.2413;0.001019042
1.22;0.2107938;0.2433;0.001048402
1.23;0.216608;0.2453333;0.00107732
1.24;0.2223714;0.2473333;0.001105985
1.25;0.2282683;0.2493333;0.001135313
1.26;0.2343718;0.2512667;0.00116567
1.27;0.2406406;0.2532333;0.001196848
1.28;0.2471256;0.2552;0.001229102
1.29;0.2537886;0.2571667;0.001262241
1.3;0.2604167;0.2592;0.001295206
1.31;0.2669493;0.2612667;0.001327697
1.32;0.273625;0.2632667;0.001360899
1.33;0.2806536;0.2652667;0.001395857
1.34;0.2879747;0.2672333;0.001432269
1.35;0.2953974;0.2691667;0.001469186
1.36;0.3027058;0.2711333;0.001505535
1.37;0.3096422;0.2731667;0.001540034
1.38;0.3163179;0.2751667;0.001573236
1.39;0.3234991;0.2771667;0.001608952
1.4;0.3316911;0.2791;0.001649696
1.41;0.3401756;0.2810667;0.001691895
1.42;0.3478877;0.2830333;0.001730251
1.43;0.3548813;0.285;0.001765035
1.44;0.36225;0.2870333;0.001801684
1.45;0.3706392;0.2890667;0.001843408
1.46;0.3793716;0.2911;0.00188684
1.47;0.3873889;0.2930667;0.001926714
1.48;0.3947353;0.2950667;0.001963252
1.49;0.4025618;0.2970667;0.002002178
1.5;0.411574;0.2990667;0.002047001
1.51;0.4210377;0.3011333;0.002094069
1.52;0.4297797;0.3032;0.002137549
1.53;0.4376952;0.3052;0.002176917
1.54;0.4457792;0.3072333;0.002217124
1.55;0.4547977;0.3092333;0.002261978
1.56;0.4643154;0.3112;0.002309315
1.57;0.4733626;0.3132;0.002354312
1.58;0.4817518;0.3152333;0.002396037
1.59;0.4902649;0.3173;0.002438377
1.6;0.4995696;0.3193333;0.002484655
1.61;0.5093606;0.3213667;0.002533352
1.62;0.5188243;0.3233667;0.00258042
1.63;0.5277316;0.3253333;0.002624721
1.64;0.5366611;0.3273333;0.002669133
1.65;0.5461693;0.3293667;0.002716423
1.66;0.5560398;0.3313333;0.002765515
1.67;0.5656528;0.3333333;0.002813326
1.68;0.5748463;0.3353;0.002859051
1.69;0.5841891;0.3372333;0.002905518
1.7;0.5941391;0.3392;0.002955005
1.71;0.6044706;0.3412;0.00300639
1.72;0.6145509;0.3432333;0.003056525
1.73;0.6241353;0.3453;0.003104194
1.74;0.6336244;0.3473;0.003151389
1.75;0.6435077;0.3492667;0.003200545
1.76;0.6538232;0.3512;0.00325185
1.77;0.6641579;0.3532;0.00330325
1.78;0.6741588;0.3551333;0.00335299
1.79;0.6838862;0.3571333;0.003401371
1.8;0.6936169;0.3591667;0.003449767
1.81;0.7034715;0.3611667;0.00349878
1.82;0.7133929;0.3631333;0.003548125
1.83;0.7234033;0.3651;0.003597913
1.84;0.7336712;0.3670667;0.003648981
1.85;0.7442792;0.3690333;0.003701741
1.86;0.7551003;0.3710667;0.00375556
1.87;0.7659817;0.3730667;0.00380968
1.88;0.7768949;0.3751;0.003863958
1.89;0.7878876;0.3771333;0.003918631
1.9;0.7989343;0.3791333;0.003973573
1.91;0.8099334;0.3811;0.004028278
1.92;0.8208053;0.3831;0.004082351
1.93;0.8315945;0.3852;0.004136011
1.94;0.8423869;0.3872333;0.004189689
1.95;0.8532683;0.3892667;0.004243808
1.96;0.8643214;0.3912667;0.004298782
1.97;0.8755652;0.3932667;0.004354704
1.98;0.8869648;0.3952333;0.004411401
1.99;0.8984502;0.3972333;0.004468524
2;0.9100183;0.3993;0.00452606
2.01;0.9216245;0.4014;0.004583784
2.02;0.9332466;0.4034334;0.004641588
2.03;0.9449609;0.4053667;0.00469985
2.04;0.956939;0.4073;0.004759424
2.05;0.9691747;0.4093333;0.004820279
2.06;0.9813945;0.4113334;0.004881056
2.07;0.9933662;0.4133667;0.004940598
2.08;1.005233;0.4153667;0.004999619
2.09;1.017262;0.4173333;0.005059447
2.1;1.029476;0.4193;0.005120191
2.11;1.041628;0.4212333;0.005180635
2.12;1.053562;0.4232333;0.005239988
2.13;1.065451;0.4252667;0.00529912
2.14;1.077633;0.4273333;0.005359706
2.15;1.090225;0.4293667;0.005422332
2.16;1.103039;0.4313333;0.005486065
2.17;1.115996;0.4333;0.005550508
2.18;1.129265;0.4352;0.005616502
2.19;1.142893;0.4372;0.005684283
2.2;1.156549;0.4391667;0.005752205
2.21;1.169818;0.4411334;0.005818198
2.22;1.182658;0.4431333;0.005882057
2.23;1.195469;0.4451333;0.005945774
2.24;1.208595;0.4471;0.006011057
2.25;1.222038;0.4490667;0.00607792
2.26;1.235546;0.4510333;0.006145099
2.27;1.248964;0.453;0.006211836
2.28;1.262426;0.4550333;0.006278793
2.29;1.276172;0.4570667;0.006347159
2.3;1.290309;0.4590667;0.006417468
2.31;1.304687;0.4611;0.00648898
2.32;1.31911;0.4631;0.006560713
2.33;1.333618;0.4651;0.006632872
2.34;1.348445;0.4671;0.006706613
2.35;1.363614;0.4692;0.006782061
2.36;1.378845;0.4712333;0.006857811
2.37;1.393935;0.4732667;0.006932863
2.38;1.409028;0.4752667;0.007007932
2.39;1.424405;0.4772334;0.007084408
2.4;1.440074;0.4792333;0.007162338
2.41;1.455784;0.4812667;0.007240475
2.42;1.471345;0.4833667;0.007317868
2.43;1.486902;0.4854;0.007395245
2.44;1.502844;0.4873667;0.007474535
2.45;1.519493;0.4893333;0.007557335
2.46;1.536776;0.4913;0.007643297
2.47;1.554314;0.4933;0.007730525
2.48;1.571884;0.4953333;0.00781791
2.49;1.589603;0.4973333;0.007906038
2.5;1.607698;0.4993334;0.007996033
2.51;1.626171;0.5013;0.008087909
2.52;1.644808;0.5032667;0.008180605
2.53;1.6635;0.5052;0.008273572
2.54;1.682307;0.5071334;0.008367108
2.55;1.701288;0.5091667;0.008461514
2.56;1.720314;0.5113;0.00855614
2.57;1.73927;0.5133333;0.008650418
2.58;1.758378;0.5153;0.008745456
2.59;1.778021;0.5172333;0.00884315
2.6;1.798261;0.5191666;0.008943817
2.61;1.818663;0.5211334;0.009045289
2.62;1.838697;0.5231333;0.009144927
2.63;1.85825;0.5251667;0.009242178
2.64;1.877693;0.5271333;0.009338876
2.65;1.897402;0.5291;0.009436903
2.66;1.917407;0.5310667;0.009536399
2.67;1.937469;0.5330333;0.00963618
2.68;1.957423;0.535;0.009735422
2.69;1.977326;0.537;0.009834412
2.7;1.997321;0.5390334;0.009933862
2.71;2.017441;0.5410666;0.01003393
2.72;2.037665;0.5430667;0.01013451
2.73;2.058036;0.5450667;0.01023583
2.74;2.078638;0.5470667;0.0103383
2.75;2.099447;0.5490667;0.01044179
2.76;2.120295;0.5511333;0.01054548
2.77;2.141078;0.5532333;0.01064885
2.78;2.161843;0.5553;0.01075212
2.79;2.182773;0.5573;0.01085622
2.8;2.204024;0.5592334;0.01096192
2.81;2.225513;0.5612333;0.0110688
2.82;2.246946;0.5632333;0.01117539
2.83;2.268089;0.5653;0.01128055
2.84;2.288987;0.5673333;0.01138449
2.85;2.309891;0.5693667;0.01148846
2.86;2.331034;0.5713333;0.01159361
2.87;2.352505;0.5732667;0.0117004
2.88;2.374191;0.5753;0.01180826
2.89;2.395862;0.5773333;0.01191604
2.9;2.417332;0.5793667;0.01202282
2.91;2.438666;0.5813667;0.01212893
2.92;2.460063;0.5833667;0.01223535
2.93;2.481651;0.5853667;0.01234272
2.94;2.50336;0.5873;0.01245069
2.95;2.525053;0.5892333;0.01255858
2.96;2.546647;0.5912333;0.01266598
2.97;2.568035;0.5933;0.01277236
2.98;2.589175;0.5953333;0.0128775
2.99;2.61028;0.5973;0.01298247
3;2.631661;0.5992333;0.01308881
3.01;2.653386;0.6011667;0.01319686
3.02;2.675184;0.6031333;0.01330527
3.03;2.696702;0.6051667;0.01341229
3.04;2.717867;0.6072;0.01351756
3.05;2.738902;0.6092333;0.01362218
3.06;2.760102;0.6112;0.01372762
3.07;2.781518;0.6131333;0.01383414
3.08;2.803065;0.6151;0.0139413
3.09;2.82458;0.6170334;0.01404831
3.1;2.845923;0.619;0.01415446
3.11;2.867031;0.6210333;0.01425944
3.12;2.88798;0.6231334;0.01436363
3.13;2.908939;0.6251667;0.01446787
3.14;2.930101;0.6271334;0.01457313
3.15;2.951641;0.6291;0.01468026
3.16;2.973521;0.6310667;0.01478908
3.17;2.99545;0.6330667;0.01489814
3.18;3.017203;0.6351;0.01500634
3.19;3.038797;0.6371667;0.01511374
3.2;3.060405;0.6392;0.0152212
3.21;3.082177;0.6412;0.01532949
3.22;3.10421;0.6432334;0.01543907
3.23;3.126459;0.6452333;0.01554973
3.24;3.148791;0.6472667;0.0156608
3.25;3.17111;0.6493334;0.01577181
3.26;3.193388;0.6513667;0.01588261
3.27;3.215659;0.6534;0.01599338
3.28;3.237991;0.6553667;0.01610445
3.29;3.260457;0.6573;0.01621618
3.3;3.283008;0.6593;0.01632834
3.31;3.30548;0.6613;0.01644011
3.32;3.327672;0.6633667;0.01655048
3.33;3.349616;0.6654;0.01665962
3.34;3.371592;0.6673334;0.01676892
3.35;3.393822;0.6693;0.01687948
3.36;3.416259;0.6712667;0.01699108
3.37;3.438625;0.6732333;0.01710232
3.38;3.460728;0.6752667;0.01721225
3.39;3.482618;0.6773334;0.01732112
3.4;3.504518;0.6793333;0.01743004
3.41;3.526621;0.6813334;0.01753997
3.42;3.548978;0.6832667;0.01765117
3.43;3.57151;0.6852;0.01776323
3.44;3.594071;0.6871;0.01787544
3.45;3.616489;0.6891;0.01798694
3.46;3.638639;0.6911;0.01809711
3.47;3.660536;0.6931334;0.01820601
3.48;3.682337;0.6951333;0.01831444
3.49;3.704309;0.6971;0.01842372
3.5;3.726606;0.6990667;0.01853462
3.51;3.749183;0.701;0.01864691
3.52;3.771852;0.703;0.01875965
3.53;3.794432;0.7050334;0.01887195
3.54;3.816869;0.7070667;0.01898355
3.55;3.839248;0.7091;0.01909485
3.56;3.861768;0.7111;0.01920686
3.57;3.884484;0.7130667;0.01931984
3.58;3.907325;0.7150667;0.01943344
3.59;3.930187;0.7171;0.01954715
3.6;3.953018;0.7191333;0.0196607
3.61;3.975741;0.7212334;0.01977371
3.62;3.99833;0.7232667;0.01988606
3.63;4.02092;0.7252667;0.01999841
3.64;4.043703;0.7272667;0.02011173
3.65;4.066706;0.7292667;0.02022613
3.66;4.089718;0.7312667;0.02034059
3.67;4.112482;0.7333;0.02045381
3.68;4.134922;0.7353667;0.02056541
3.69;4.157177;0.7374;0.0206761
3.7;4.179471;0.7393667;0.02078699
3.71;4.201892;0.7413334;0.0208985
3.72;4.224351;0.7433667;0.0210102
3.73;4.246699;0.7454;0.02112135
3.74;4.268859;0.7474;0.02123156
3.75;4.290934;0.7494;0.02134135
3.76;4.313068;0.7513667;0.02145144
3.77;4.33526;0.7532667;0.02156182
3.78;4.357401;0.7552;0.02167194
3.79;4.379412;0.7572;0.02178141
3.8;4.401245;0.7592;0.02189
3.81;4.422916;0.7612666;0.02199778
3.82;4.444555;0.7633;0.0221054
3.83;4.4664;0.7652667;0.02221405
3.84;4.488583;0.7672333;0.02232438
3.85;4.511048;0.7692;0.02243611
3.86;4.533561;0.7711667;0.02254808
3.87;4.555912;0.7731667;0.02265925
3.88;4.578024;0.7751667;0.02276922
3.89;4.599985;0.7771667;0.02287845
3.9;4.621935;0.7791667;0.02298762
3.91;4.643997;0.7811;0.02309734
3.92;4.666153;0.7830334;0.02320754
3.93;4.688311;0.785;0.02331774
3.94;4.710385;0.787;0.02342753
3.95;4.732323;0.7890667;0.02353664
3.96;4.754175;0.7911;0.02364532
3.97;4.776131;0.7931333;0.02375453
3.98;4.79839;0.7951;0.02386523
3.99;4.820992;0.7970667;0.02397765
4;4.843779;0.7990667;0.02409098
4.01;4.866489;0.8011667;0.02420393
4.02;4.889002;0.8032667;0.0243159
4.03;4.911451;0.8052667;0.02442755
4.04;4.934143;0.8072667;0.02454041
4.05;4.957253;0.8092334;0.02465535
4.06;4.980644;0.8112;0.02477169
4.07;5.003948;0.8132;0.0248876
4.08;5.026906;0.8152667;0.02500178
4.09;5.049531;0.8173667;0.0251143
4.1;5.072082;0.8194;0.02522647
4.11;5.094925;0.8213667;0.02534008
4.12;5.118262;0.8233667;0.02545615
4.13;5.141901;0.8253334;0.02557371
4.14;5.16545;0.8273333;0.02569084
4.15;5.188757;0.8293334;0.02580676
4.16;5.211929;0.8313667;0.02592201
4.17;5.235113;0.8333333;0.02603731
4.18;5.258337;0.8353;0.02615282
4.19;5.281572;0.8372334;0.02626839
4.2;5.304762;0.8392667;0.02638372
4.21;5.327848;0.8412333;0.02649854
4.22;5.3508;0.8432333;0.02661269
4.23;5.373665;0.8453;0.02672642
4.24;5.396566;0.8473;0.02684032
4.25;5.419611;0.8492666;0.02695493
4.26;5.442845;0.8512334;0.02707049
4.27;5.466223;0.8531667;0.02718676
4.28;5.48954;0.8551334;0.02730273
4.29;5.512575;0.8571666;0.0274173
4.3;5.535342;0.8592;0.02753053
4.31;5.558014;0.8611333;0.02764329
4.32;5.580794;0.8631334;0.02775659
4.33;5.603765;0.8650666;0.02787084
4.34;5.626809;0.8670334;0.02798545
4.35;5.649684;0.8689667;0.02809922
4.36;5.672274;0.871;0.02821157
4.37;5.694679;0.8731;0.02832301
4.38;5.717106;0.8751333;0.02843455
4.39;5.739759;0.8771;0.02854722
4.4;5.762781;0.879;0.02866172
4.41;5.786091;0.8809667;0.02877766
4.42;5.809358;0.883;0.02889338
4.43;5.832253;0.8851333;0.02900724
4.44;5.854813;0.8872333;0.02911945
4.45;5.877447;0.8892334;0.02923202
4.46;5.90057;0.8912333;0.02934703
4.47;5.924241;0.8932;0.02946476
4.48;5.948086;0.8952;0.02958335
4.49;5.971673;0.8972334;0.02970067
4.5;5.99486;0.8993;0.02981599
4.51;6.017796;0.9013667;0.02993006
4.52;6.040758;0.9033667;0.03004426
4.53;6.06398;0.9053667;0.03015976
4.54;6.087532;0.9073667;0.0302769
4.55;6.111183;0.9093333;0.03039453
4.56;6.134621;0.9113;0.0305111
4.57;6.157716;0.9133;0.03062597
4.58;6.180569;0.9153333;0.03073963
4.59;6.203352;0.9173;0.03085294
4.6;6.226177;0.9193;0.03096646
4.61;6.2491;0.9212667;0.03108047
4.62;6.272081;0.9232;0.03119477
4.63;6.295017;0.9252334;0.03130884
4.64;6.317838;0.9272667;0.03142235
4.65;6.340583;0.9293333;0.03153547
4.66;6.363408;0.9313;0.03164899
4.67;6.386477;0.9332;0.03176373
4.68;6.409817;0.9351667;0.03187981
4.69;6.433223;0.9372;0.03199623
4.7;6.456385;0.9392;0.03211142
4.71;6.479209;0.9411667;0.03222494
4.72;6.50197;0.9431334;0.03233815
4.73;6.524935;0.9451333;0.03245236
4.74;6.548087;0.9470667;0.03256751
4.75;6.571261;0.9490333;0.03268277
4.76;6.594385;0.951;0.03279778
4.77;6.617413;0.953;0.03291231
4.78;6.640295;0.9550667;0.03302611
4.79;6.66309;0.9571;0.03313949
4.8;6.686052;0.9591333;0.03325369
4.81;6.709442;0.9611334;0.03337003
4.82;6.733259;0.9631;0.03348848
4.83;6.757278;0.9651334;0.03360794
4.84;6.781212;0.9671333;0.03372698
4.85;6.804921;0.9692;0.0338449
4.86;6.828464;0.9712334;0.03396199
4.87;6.85201;0.9732333;0.0340791
4.88;6.875706;0.9752333;0.03419695
4.89;6.899563;0.9772334;0.03431561
4.9;6.923437;0.9792667;0.03443435
4.91;6.947098;0.9812667;0.03455203
4.92;6.970523;0.9833667;0.03466854
4.93;6.993828;0.9854;0.03478444
4.94;7.017218;0.9874;0.03490078
4.95;7.040802;0.9893667;0.03501808
4.96;7.064486;0.9913;0.03513587
4.97;7.088016;0.9933;0.0352529
4.98;7.111203;0.9953334;0.03536822
4.99;7.134056;0.9973667;0.03548188
5;7.156744;0.9994333;0.03559472
5.01;7.179505;1.001367;0.03570793
5.02;7.202511;1.003267;0.03582235
5.03;7.225704;1.0052;0.0359377
5.04;7.248837;1.007167;0.03605276
5.05;7.271601;1.009233;0.03616598
5.06;7.293959;1.0113;0.03627717
5.07;7.316208;1.013333;0.03638783
5.08;7.338785;1.015267;0.03650012
5.09;7.361911;1.017167;0.03661514
5.1;7.3854;1.019133;0.03673197
5.11;7.408784;1.021167;0.03684827
5.12;7.431736;1.023167;0.03696242
5.13;7.454335;1.025167;0.03707482
5.14;7.476982;1.027167;0.03718745
5.15;7.499975;1.029167;0.03730181
5.16;7.523266;1.0311;0.03741766
5.17;7.54659;1.033033;0.03753366
5.18;7.569765;1.034967;0.03764892
5.19;7.592764;1.037033;0.03776331
5.2;7.615595;1.0391;0.03787686
5.21;7.638302;1.041133;0.0379898
5.22;7.661127;1.043133;0.03810332
5.23;7.684361;1.045133;0.03821887
5.24;7.708057;1.0471;0.03833673
5.25;7.731953;1.0491;0.03845558
5.26;7.755728;1.051133;0.03857382
5.27;7.779303;1.053233;0.03869108
5.28;7.802798;1.0553;0.03880793
5.29;7.826401;1.0573;0.03892532
5.3;7.85024;1.059267;0.03904389
5.31;7.874308;1.061167;0.03916359
5.32;7.898397;1.063167;0.03928341
5.33;7.922246;1.065267;0.03940202
5.34;7.945773;1.067333;0.03951903
5.35;7.969195;1.069333;0.03963552
5.36;7.992922;1.071333;0.03975353
5.37;8.017175;1.073267;0.03987416
5.38;8.041751;1.0753;0.03999639
5.39;8.066213;1.077333;0.04011805
5.4;8.090346;1.079333;0.04023808
5.41;8.114306;1.081333;0.04035725
5.42;8.138358;1.083333;0.04047687
5.43;8.16262;1.085333;0.04059754
5.44;8.186941;1.087267;0.0407185
5.45;8.21111;1.089233;0.04083871
5.46;8.235092;1.091267;0.04095799
5.47;8.258946;1.0933;0.04107663
5.48;8.282706;1.0953;0.0411948
5.49;8.306462;1.0973;0.04131295
5.5;8.330352;1.099267;0.04143177
5.51;8.354371;1.1012;0.04155123
5.52;8.378379;1.103167;0.04167064
5.53;8.402176;1.105167;0.041789
5.54;8.425617;1.107167;0.04190558
5.55;8.44868;1.109167;0.04202028
5.56;8.471543;1.111133;0.042134
5.57;8.494441;1.113133;0.04224788
5.58;8.517523;1.115067;0.04236268
5.59;8.540751;1.116967;0.04247821
5.6;8.563995;1.119;0.04259382
5.61;8.587129;1.121033;0.04270887
5.62;8.610077;1.1231;0.04282301
5.63;8.632956;1.125167;0.0429368
5.64;8.656006;1.127133;0.04305144
5.65;8.679425;1.129067;0.04316792
5.66;8.703229;1.131;0.04328631
5.67;8.727128;1.133033;0.04340517
5.68;8.750753;1.135133;0.04352267
5.69;8.773956;1.137233;0.04363808
5.7;8.79709;1.139267;0.04375313
5.71;8.820645;1.1412;0.04387029
5.72;8.844773;1.143167;0.04399029
5.73;8.869152;1.145167;0.04411154
5.74;8.893273;1.147267;0.04423151
5.75;8.91689;1.149333;0.04434897
5.76;8.940232;1.1514;0.04446507
5.77;8.963737;1.153367;0.04458197
5.78;8.987656;1.155333;0.04470093
5.79;9.011812;1.1573;0.04482108
5.8;9.035857;1.159267;0.04494067
5.81;9.059518;1.1613;0.04505834
5.82;9.082797;1.163333;0.04517413
5.83;9.105943;1.165367;0.04528924
5.84;9.129238;1.167333;0.0454051
5.85;9.152759;1.169333;0.04552209
5.86;9.176385;1.1713;0.04563959
5.87;9.19995;1.173233;0.0457568
5.88;9.223392;1.175233;0.04587338
5.89;9.246747;1.177333;0.04598955
5.9;9.270051;1.179333;0.04610545
5.91;9.293363;1.1813;0.04622139
5.92;9.316835;1.1833;0.04633814
5.93;9.340575;1.1852;0.04645621
5.94;9.364462;1.187133;0.04657501
5.95;9.388256;1.1891;0.04669335
5.96;9.411767;1.1911;0.04681029
5.97;9.43496;1.1931;0.04692564
5.98;9.458034;1.1951;0.0470404
5.99;9.481275;1.197067;0.04715599
6;9.504798;1.199033;0.04727298
6.01;9.528525;1.201;0.047391
6.02;9.552323;1.203;0.04750936
6.03;9.576098;1.205067;0.04762761
6.04;9.59981;1.207067;0.04774553
6.05;9.623487;1.2091;0.04786329
6.06;9.647243;1.2111;0.04798145
6.07;9.671176;1.2131;0.04810048
6.08;9.695272;1.2151;0.04822033
6.09;9.719407;1.217133;0.04834037
6.1;9.743459;1.2192;0.04845999
6.11;9.767427;1.221233;0.0485792
6.12;9.791429;1.223267;0.04869857
6.13;9.815576;1.225267;0.04881867
6.14;9.839862;1.227267;0.04893946
6.15;9.864159;1.229267;0.0490603
6.16;9.888309;1.2313;0.04918041
6.17;9.912243;1.233367;0.04929945
6.18;9.935992;1.2354;0.04941757
6.19;9.959733;1.237367;0.04953565
6.2;9.983664;1.239367;0.04965467
6.21;10.00774;1.241333;0.04977443
6.22;10.03172;1.243367;0.04989368
6.23;10.05542;1.245367;0.05001153
6.24;10.0789;1.2474;0.05012832
6.25;10.10231;1.249367;0.05024475
6.26;10.12578;1.251367;0.05036151
6.27;10.14939;1.253267;0.05047894
6.28;10.17309;1.2552;0.05059682
6.29;10.1967;1.2572;0.05071421
6.3;10.22003;1.2592;0.05083028
6.31;10.2431;1.261233;0.050945
6.32;10.26613;1.263267;0.05105952
6.33;10.2894;1.265267;0.05117527
6.34;10.31307;1.267233;0.05129301
6.35;10.33709;1.269167;0.05141244
6.36;10.36123;1.271167;0.05153253
6.37;10.38529;1.273167;0.05165218
6.38;10.40914;1.2752;0.05177081
6.39;10.43285;1.277167;0.05188876
6.4;10.45664;1.279167;0.05200705
6.41;10.48062;1.2811;0.05212634
6.42;10.50473;1.283033;0.05224624
6.43;10.52875;1.285;0.05236568
6.44;10.55255;1.286967;0.05248407
6.45;10.57614;1.289033;0.0526014
6.46;10.59965;1.2911;0.05271834
6.47;10.62327;1.293133;0.05283583
6.48;10.64719;1.2951;0.05295476
6.49;10.67148;1.297067;0.0530756
6.5;10.69605;1.299067;0.05319778
6.51;10.72062;1.301167;0.05331998
6.52;10.74496;1.303233;0.05344106
6.53;10.7692;1.305267;0.05356158
6.54;10.79368;1.307233;0.05368334
6.55;10.81855;1.309233;0.05380708
6.56;10.84359;1.3112;0.05393161
6.57;10.86843;1.3132;0.05405514
6.58;10.89296;1.315267;0.05417715
6.59;10.9173;1.317333;0.0542982
6.6;10.94161;1.319333;0.05441909
6.61;10.96606;1.321333;0.05454072
6.62;10.99083;1.3233;0.05466392
6.63;11.01584;1.3253;0.05478831
6.64;11.04083;1.327333;0.05491259
6.65;11.06559;1.329367;0.05503575
6.66;11.09016;1.331333;0.05515794
6.67;11.11471;1.333333;0.05528001
6.68;11.13939;1.335267;0.05540276
6.69;11.1642;1.337233;0.05552615
6.7;11.18892;1.339233;0.05564914
6.71;11.21336;1.3412;0.05577069
6.72;11.23749;1.343267;0.05589069
6.73;11.26149;1.345333;0.05601005
6.74;11.2856;1.3473;0.05612998
6.75;11.30998;1.3493;0.05625124
6.76;11.33461;1.351233;0.05637374
6.77;11.35932;1.353167;0.05649664
6.78;11.3838;1.355133;0.05661839
6.79;11.40786;1.357167;0.05673805
6.8;11.43153;1.359133;0.05685578
6.81;11.455;1.361133;0.0569725
6.82;11.47844;1.363133;0.05708909
6.83;11.50201;1.3651;0.05720628
6.84;11.52568;1.367033;0.05732401
6.85;11.54935;1.369;0.05744176
6.86;11.57292;1.371;0.05755896
6.87;11.59634;1.3731;0.05767544
6.88;11.61965;1.375133;0.0577914
6.89;11.64301;1.3771;0.05790757
6.9;11.66664;1.379033;0.0580251
6.91;11.69055;1.381033;0.05814402
6.92;11.71448;1.383067;0.05826306
6.93;11.73818;1.385167;0.05838091
6.94;11.76169;1.387233;0.05849783
6.95;11.78532;1.389233;0.05861537
6.96;11.80935;1.391233;0.0587349
6.97;11.83378;1.3932;0.05885639
6.98;11.85831;1.395233;0.0589784
6.99;11.88264;1.397233;0.05909938
7;11.90669;1.399333;0.05921901
7.01;11.93061;1.4014;0.05933796
7.02;11.9546;1.403367;0.0594573
7.03;11.97882;1.405367;0.05957778
7.04;12.00331;1.407333;0.05969958
7.05;12.02788;1.409333;0.05982175
7.06;12.05222;1.411367;0.05994283
7.07;12.07626;1.413333;0.06006239
7.08;12.10017;1.415367;0.06018128
7.09;12.12413;1.417333;0.06030045
7.1;12.14815;1.419267;0.06041993
7.11;12.17218;1.4212;0.06053948
7.12;12.19616;1.423233;0.06065873
7.13;12.22;1.425233;0.0607773
7.14;12.24366;1.4273;0.06089494
7.15;12.26725;1.429367;0.06101231
7.16;12.29108;1.431333;0.06113079
7.17;12.3153;1.433267;0.0612513
7.18;12.33983;1.435233;0.06137327
7.19;12.36434;1.437233;0.06149519
7.2;12.38857;1.4392;0.06161569
7.21;12.41255;1.441133;0.06173493
7.22;12.43651;1.443133;0.06185414
7.23;12.46058;1.4451;0.06197381
7.24;12.48461;1.4471;0.06209334
7.25;12.50855;1.449033;0.06221241
7.26;12.53249;1.451033;0.06233148
7.27;12.55646;1.453033;0.06245073
7.28;12.58037;1.455033;0.06256962
7.29;12.6042;1.4571;0.06268814
7.3;12.62814;1.459133;0.06280719
7.31;12.65241;1.4611;0.06292792
7.32;12.67706;1.463067;0.06305052
7.33;12.70191;1.4651;0.06317413
7.34;12.72672;1.467133;0.0632975
7.35;12.75138;1.469167;0.06342015
7.36;12.776;1.471267;0.06354261
7.37;12.80078;1.473267;0.06366585
7.38;12.8258;1.475233;0.06379031
7.39;12.85098;1.4772;0.06391552
7.4;12.87609;1.4792;0.06404042
7.41;12.90094;1.481267;0.06416401
7.42;12.92549;1.483367;0.06428612
7.43;12.94989;1.4854;0.06440748
7.44;12.97444;1.487367;0.06452958
7.45;12.99936;1.489367;0.06465352
7.46;13.02456;1.4913;0.06477886
7.47;13.04966;1.4933;0.06490367
7.48;13.07433;1.495333;0.0650264
7.49;13.09862;1.497367;0.06514721
7.5;13.12279;1.4994;0.06526742
7.51;13.14708;1.501367;0.06538823
7.52;13.17162;1.5033;0.06551025
7.53;13.19629;1.505267;0.06563298
7.54;13.22084;1.507233;0.06575505
7.55;13.24505;1.509233;0.06587548
7.56;13.26901;1.511267;0.06599467
7.57;13.29295;1.513233;0.06611372
7.58;13.31703;1.5152;0.06623348
7.59;13.34133;1.5172;0.06635433
7.6;13.36584;1.5192;0.06647623
7.61;13.39038;1.521167;0.0665983
7.62;13.41481;1.523133;0.0667198
7.63;13.43915;1.525167;0.06684083
7.64;13.46347;1.527133;0.06696181
7.65;13.48784;1.529133;0.06708302
7.66;13.51227;1.5311;0.06720454
7.67;13.53674;1.533067;0.06732622
7.68;13.56114;1.535;0.06744758
7.69;13.58539;1.537;0.06756818
7.7;13.6095;1.539067;0.06768812
7.71;13.63361;1.5411;0.06780803
7.72;13.65785;1.5431;0.06792855
7.73;13.68231;1.5451;0.06805025
7.74;13.70703;1.5471;0.06817316
7.75;13.73184;1.5491;0.06829654
7.76;13.75655;1.5511;0.06841946
7.77;13.78115;1.5532;0.0685418
7.78;13.80573;1.555233;0.06866404
7.79;13.83041;1.557233;0.06878682
7.8;13.85528;1.559233;0.06891049
7.81;13.8803;1.561233;0.06903496
7.82;13.90529;1.5632;0.06915925
7.83;13.9301;1.565267;0.06928264
7.84;13.95479;1.567367;0.06940541
7.85;13.9795;1.569367;0.06952833
7.86;14.00436;1.571333;0.06965198
7.87;14.02948;1.5733;0.06977692
7.88;14.05483;1.575267;0.06990299
7.89;14.08013;1.5773;0.07002883
7.9;14.10512;1.579333;0.07015309
7.91;14.12983;1.581333;0.07027599
7.92;14.15453;1.583333;0.07039885
7.93;14.17945;1.5853;0.07052281
7.94;14.20458;1.587267;0.07064778
7.95;14.22972;1.589233;0.07077284
7.96;14.25472;1.591233;0.07089714
7.97;14.27949;1.593267;0.07102035
7.98;14.30409;1.5953;0.0711427
7.99;14.32869;1.597267;0.07126504
8;14.35348;1.599233;0.07138836
8.01;14.37853;1.6012;0.07151293
8.02;14.40362;1.603167;0.07163774
8.03;14.42846;1.6052;0.07176129
8.04;14.45296;1.607167;0.07188313
8.05;14.47729;1.6092;0.07200412
8.06;14.50167;1.611167;0.07212538
8.07;14.52618;1.613133;0.07224727
8.08;14.55076;1.6151;0.07236952
8.09;14.57528;1.617067;0.0724915
8.1;14.59966;1.619033;0.07261277
8.11;14.62387;1.621067;0.07273316
8.12;14.64792;1.6231;0.07285279
8.13;14.67194;1.625133;0.07297225
8.14;14.6961;1.6271;0.07309238
8.15;14.72054;1.629067;0.07321395
8.16;14.74522;1.631067;0.07333672
8.17;14.76989;1.633067;0.07345942
8.18;14.79433;1.635133;0.07358097
8.19;14.81858;1.6372;0.07370155
8.2;14.84289;1.639233;0.07382248
8.21;14.86756;1.641233;0.07394518
8.22;14.89264;1.643233;0.0740699
8.23;14.91794;1.645233;0.07419573
8.24;14.94318;1.647233;0.07432129
8.25;14.96825;1.6493;0.07444598
8.26;14.99321;1.651367;0.0745701
8.27;15.01814;1.653367;0.07469408
8.28;15.04312;1.655333;0.07481833
8.29;15.06826;1.657333;0.07494339
8.3;15.09354;1.659333;0.07506911
8.31;15.1187;1.661367;0.07519426
8.32;15.14362;1.663367;0.07531817
8.33;15.16836;1.665367;0.07544124
8.34;15.19312;1.667333;0.07556436
8.35;15.21796;1.6693;0.0756879
8.36;15.24285;1.671267;0.0758117
8.37;15.26769;1.6732;0.07593526
8.38;15.29243;1.675233;0.07605828
8.39;15.317;1.677267;0.07618053
8.4;15.34147;1.679267;0.07630219
8.41;15.36602;1.6812;0.0764243
8.42;15.39088;1.683167;0.07654795
8.43;15.41604;1.6852;0.07667308
8.44;15.44122;1.6872;0.07679833
8.45;15.46623;1.6892;0.07692273
8.46;15.49118;1.691167;0.07704682
8.47;15.51634;1.693133;0.07717194
8.48;15.54173;1.695167;0.07729825
8.49;15.56719;1.697133;0.07742484
8.5;15.59256;1.699067;0.07755101
8.51;15.61785;1.701;0.07767683
8.52;15.64317;1.703033;0.07780276
8.53;15.66846;1.705067;0.07792854
8.54;15.69366;1.7071;0.07805385
8.55;15.71889;1.709133;0.07817932
8.56;15.74436;1.7111;0.07830601
8.57;15.77017;1.713067;0.07843436
8.58;15.79615;1.7151;0.07856359
8.59;15.82207;1.717133;0.0786925
8.6;15.84776;1.7192;0.0788203
8.61;15.87322;1.721267;0.07894693
8.62;15.89865;1.7233;0.07907341
8.63;15.92434;1.725267;0.07920116
8.64;15.95036;1.727233;0.07933059
8.65;15.97647;1.729233;0.07946043
8.66;16.00231;1.731267;0.07958895
8.67;16.0277;1.733333;0.07971526
8.68;16.0528;1.7354;0.07984007
8.69;16.07787;1.737367;0.07996475
8.7;16.10314;1.739333;0.08009046
8.71;16.12863;1.741267;0.08021722
8.72;16.1541;1.743267;0.08034389
8.73;16.17926;1.745333;0.08046902
8.74;16.204;1.747367;0.08059207
8.75;16.22853;1.7494;0.08071408
8.76;16.25318;1.751367;0.08083668
8.77;16.27814;1.753267;0.08096084
8.78;16.30333;1.755167;0.08108611
8.79;16.32842;1.757167;0.08121092
8.8;16.35313;1.759167;0.08133382
8.81;16.37735;1.761267;0.08145425
8.82;16.40133;1.7633;0.08157349
8.83;16.42553;1.765267;0.0816939
8.84;16.45027;1.7672;0.08181693
8.85;16.47543;1.769167;0.08194206
8.86;16.50064;1.7712;0.08206747
8.87;16.5256;1.7732;0.08219158
8.88;16.55027;1.7752;0.08231429
8.89;16.57486;1.7772;0.08243657
8.9;16.5995;1.779167;0.08255913
8.91;16.62421;1.781133;0.08268203
8.92;16.64898;1.783033;0.08280521
8.93;16.67378;1.785;0.0829286
8.94;16.6985;1.787;0.08305153
8.95;16.72295;1.789067;0.08317311
8.96;16.74715;1.791133;0.08329348
8.97;16.77142;1.793133;0.08341417
8.98;16.79612;1.7951;0.08353703
8.99;16.82134;1.797067;0.08366248
9;16.84679;1.799067;0.08378906
9.01;16.87208;1.8011;0.08391482
9.02;16.89703;1.803167;0.08403893
9.03;16.92181;1.805267;0.08416218
9.04;16.94673;1.807267;0.08428612
9.05;16.97203;1.809267;0.08441196
9.06;16.99774;1.8112;0.08453981
9.07;17.02363;1.8132;0.08466857
9.08;17.04937;1.815267;0.08479659
9.09;17.07477;1.817333;0.08492294
9.1;17.09991;1.8194;0.08504798
9.11;17.12512;1.8214;0.08517336
9.12;17.15066;1.823367;0.08530036
9.13;17.17648;1.825333;0.08542878
9.14;17.20233;1.827333;0.08555735
9.15;17.22797;1.829333;0.08568488
9.16;17.25332;1.831333;0.08581098
9.17;17.27849;1.8333;0.08593616
9.18;17.30363;1.835267;0.08606117
9.19;17.32883;1.837267;0.08618653
9.2;17.35412;1.839233;0.08631231
9.21;17.37942;1.841167;0.08643816
9.22;17.40466;1.843233;0.0865637
9.23;17.42982;1.845333;0.08668881
9.24;17.45491;1.847367;0.08681362
9.25;17.48012;1.849333;0.08693899
9.26;17.50572;1.851233;0.0870663
9.27;17.53167;1.853167;0.08719538
9.28;17.55756;1.855167;0.08732414
9.29;17.58298;1.857167;0.08745056
9.3;17.60789;1.859167;0.08757445
9.31;17.6326;1.861167;0.08769735
9.32;17.65749;1.863133;0.08782115
9.33;17.68268;1.8651;0.08794644
9.34;17.70801;1.867067;0.08807241
9.35;17.7333;1.869033;0.0881982
9.36;17.75851;1.871067;0.08832357
9.37;17.78361;1.8731;0.08844841
9.38;17.80863;1.875067;0.08857287
9.39;17.83373;1.877067;0.08869769
9.4;17.85906;1.879033;0.0888237
9.41;17.88458;1.881067;0.08895063
9.42;17.9101;1.883067;0.08907752
9.43;17.9355;1.8852;0.08920386
9.44;17.96091;1.887233;0.08933024
9.45;17.98652;1.889267;0.08945762
9.46;18.01244;1.891233;0.08958653
9.47;18.0386;1.893233;0.08971662
9.48;18.06476;1.895233;0.08984675
9.49;18.0907;1.897233;0.08997576
9.5;18.1164;1.8993;0.0901036
9.51;18.142;1.901367;0.09023092
9.52;18.16767;1.903367;0.09035856
9.53;18.19352;1.905333;0.09048715
9.54;18.21961;1.907333;0.0906169
9.55;18.24579;1.909333;0.09074713
9.56;18.27182;1.9113;0.09087659
9.57;18.29761;1.913333;0.09100484
9.58;18.32324;1.915367;0.09113234
9.59;18.34886;1.917333;0.09125975
9.6;18.37455;1.919267;0.09138752
9.61;18.40034;1.921267;0.09151578
9.62;18.42613;1.923267;0.09164406
9.63;18.45179;1.925267;0.09177167
9.64;18.47725;1.927367;0.09189829
9.65;18.50266;1.9294;0.09202465
9.66;18.52826;1.9313;0.09215201
9.67;18.55425;1.9332;0.09228129
9.68;18.58057;1.935133;0.09241215
9.69;18.60677;1.937133;0.09254247
9.7;18.63245;1.939167;0.09267018
9.71;18.65763;1.9412;0.09279545
9.72;18.68282;1.943167;0.09292072
9.73;18.70851;1.945133;0.09304849
9.74;18.73479;1.9471;0.09317921
9.75;18.7613;1.949033;0.09331107
9.76;18.78762;1.951033;0.09344196
9.77;18.81361;1.953;0.09357124
9.78;18.83944;1.955033;0.09369969
9.79;18.86534;1.957033;0.09382851
9.8;18.89142;1.959067;0.09395824
9.81;18.91773;1.961067;0.09408908
9.82;18.94426;1.9631;0.094221
9.83;18.97095;1.9651;0.09435378
9.84;18.9977;1.9671;0.09448681
9.85;19.02438;1.9692;0.09461949
9.86;19.05096;1.971233;0.09475172
9.87;19.07751;1.973267;0.09488373
9.88;19.10409;1.975233;0.09501597
9.89;19.13074;1.9772;0.09514847
9.9;19.15732;1.9792;0.09528069
9.91;19.18365;1.981267;0.09541164
9.92;19.20963;1.983367;0.09554085
9.93;19.23542;1.9854;0.09566913
9.94;19.2613;1.987367;0.09579784
9.95;19.28744;1.9893;0.09592785
9.96;19.31373;1.991267;0.09605862
9.97;19.33983;1.993267;0.09618843
9.98;19.36549;1.995333;0.09631602
9.99;19.39077;1.997367;0.09644178
10;19.41599;1.999333;0.09656718
10.01;19.44139;2.001333;0.09669353
10.02;19.467;2.0033;0.0968209
10.03;19.49263;2.005233;0.09694839
10.04;19.51807;2.0072;0.09707491
10.05;19.54326;2.009233;0.09720019
10.06;19.56824;2.0113;0.09732442
10.07;19.59313;2.0133;0.09744825
10.08;19.61823;2.015233;0.09757306
10.09;19.64379;2.017167;0.09770019
10.1;19.66971;2.019133;0.0978291
10.11;19.69549;2.021133;0.09795734
10.12;19.72084;2.023167;0.09808341
10.13;19.74592;2.025167;0.09820813
10.14;19.77104;2.027133;0.09833308
10.15;19.7964;2.029133;0.09845924
10.16;19.82203;2.031067;0.09858668
10.17;19.84775;2.033;0.0987146
10.18;19.87337;2.035;0.09884201
10.19;19.89875;2.037033;0.09896825
10.2;19.9239;2.039067;0.09909333
10.21;19.94903;2.041067;0.09921833
10.22;19.97443;2.043067;0.09934466
10.23;20.00018;2.0451;0.09947272
10.24;20.02614;2.0468;0.09960186
10.25;20.05216;2.047533;0.09973126
10.26;20.07795;2.047767;0.09985953