<?xml version="1.0" encoding="UTF-8" standalone="no"?>
<svg
   xmlns:dc="http://purl.org/dc/elements/1.1/"
   xmlns:cc="http://creativecommons.org/ns#"
   xmlns:rdf="http://www.w3.org/1999/02/22-rdf-syntax-ns#"
   xmlns:svg="http://www.w3.org/2000/svg"
   xmlns="http://www.w3.org/2000/svg"
   xmlns:sodipodi="http://sodipodi.sourceforge.net/DTD/sodipodi-0.dtd"
   xmlns:inkscape="http://www.inkscape.org/namespaces/inkscape"
   width="420mm"
   height="594mm"
   viewBox="0 0 420 594"
   version="1.1"
   id="svg8"
   inkscape:version="1.0.2 (e86c8708, 2021-01-15)"
   sodipodi:docname="back.svg">
  <defs
     id="defs2" />
  <sodipodi:namedview
     id="base"
     pagecolor="#ffffff"
     bordercolor="#666666"
     borderopacity="1.0"
     inkscape:pageopacity="0.0"
     inkscape:pageshadow="2"
     inkscape:zoom="0.36164426"
     inkscape:cx="966.61929"
     inkscape:cy="1382.499"
     inkscape:document-units="mm"
     inkscape:current-layer="layer1"
     inkscape:document-rotation="0"
     showgrid="false"
     inkscape:window-width="1335"
     inkscape:window-height="803"
     inkscape:window-x="58"
     inkscape:window-y="726"
     inkscape:window-maximized="0" />
  <metadata
     id="metadata5">
    <rdf:RDF>
      <cc:Work
         rdf:about="">
        <dc:format>image/svg+xml</dc:format>
        <dc:type
           rdf:resource="http://purl.org/dc/dcmitype/StillImage" />
        <dc:title />
      </cc:Work>
    </rdf:RDF>
  </metadata>
  <g
     inkscape:label="Layer 1"
     inkscape:groupmode="layer"
     id="layer1">
    <rect
       style="fill:none;stroke:#ff0000;stroke-width:0.2;stroke-miterlimit:4;stroke-dasharray:none;stroke-opacity:1"
       id="rect2462"
       width="339.78137"
       height="239.78137"
       x="39.935638"
       y="115.01544" />
    <rect
       style="fill:none;stroke:#ff0000;stroke-width:0.2;stroke-miterlimit:4;stroke-dasharray:none;stroke-opacity:1"
       id="rect2464-9-0-2-0"
       width="34.00032"
       height="4.7948761"
       x="38.260063"
       y="115.01949" />
    <rect
       style="fill:none;stroke:#ff0000;stroke-width:0.2;stroke-miterlimit:4;stroke-dasharray:none;stroke-opacity:1"
       id="rect2464-9-0-2-0-9"
       width="34.406219"
       height="4.7954721"
       x="99.543785"
       y="115.04401" />
    <rect
       style="fill:none;stroke:#ff0000;stroke-width:0.2;stroke-miterlimit:4;stroke-dasharray:none;stroke-opacity:1"
       id="rect2464-9-0-9-3"
       width="35.530708"
       height="4.7903666"
       x="161.14064"
       y="115.04253" />
    <rect
       style="fill:none;stroke:#ff0000;stroke-width:0.2;stroke-miterlimit:4;stroke-dasharray:none;stroke-opacity:1"
       id="rect2464-9-0-3-0"
       width="35.423325"
       height="4.7907166"
       x="223.11766"
       y="115.04236" />
    <rect
       style="fill:none;stroke:#ff0000;stroke-width:0.2;stroke-miterlimit:4;stroke-dasharray:none;stroke-opacity:1"
       id="rect2464-9-0-8-4"
       width="34.880638"
       height="4.7839971"
       x="285.31253"
       y="115.04572" />
    <rect
       style="fill:none;stroke:#ff0000;stroke-width:0.2;stroke-miterlimit:4;stroke-dasharray:none;stroke-opacity:1"
       id="rect2464-9-0-28-0"
       width="33.353592"
       height="4.7917833"
       x="347.60034"
       y="115.02102" />
    <rect
       style="fill:none;stroke:#ff0000;stroke-width:0.2;stroke-miterlimit:4;stroke-dasharray:none;stroke-opacity:1"
       id="rect2464-9-0-28-9"
       width="29.802948"
       height="4.8029485"
       x="70.933472"
       y="349.99387" />
    <rect
       style="fill:none;stroke:#ff0000;stroke-width:0.2;stroke-miterlimit:4;stroke-dasharray:none;stroke-opacity:1"
       id="rect2464-9-0-28-5"
       width="29.802948"
       height="4.8029485"
       x="132.92915"
       y="349.99387" />
    <rect
       style="fill:none;stroke:#ff0000;stroke-width:0.2;stroke-miterlimit:4;stroke-dasharray:none;stroke-opacity:1"
       id="rect2464-9-0-28-59"
       width="29.802948"
       height="4.8029485"
       x="194.92484"
       y="349.99387" />
    <rect
       style="fill:none;stroke:#ff0000;stroke-width:0.2;stroke-miterlimit:4;stroke-dasharray:none;stroke-opacity:1"
       id="rect2464-9-0-28-3"
       width="29.802948"
       height="4.8029485"
       x="256.92053"
       y="349.99387" />
    <rect
       style="fill:none;stroke:#ff0000;stroke-width:0.2;stroke-miterlimit:4;stroke-dasharray:none;stroke-opacity:1"
       id="rect2464-9-0-28-443"
       width="29.802948"
       height="4.8029485"
       x="318.9162"
       y="349.99387" />
    <rect
       style="fill:none;stroke:#ff0000;stroke-width:0.2;stroke-miterlimit:4;stroke-dasharray:none;stroke-opacity:1"
       id="rect2464-9-0-28"
       width="4.7969518"
       height="33.387955"
       x="39.938637"
       y="293.64594" />
    <rect
       style="fill:none;stroke:#ff0000;stroke-width:0.2;stroke-miterlimit:4;stroke-dasharray:none;stroke-opacity:1"
       id="rect2464-9-0-28-8"
       width="4.796761"
       height="33.855873"
       x="39.938732"
       y="233.25908" />
    <rect
       style="fill:none;stroke:#ff0000;stroke-width:0.2;stroke-miterlimit:4;stroke-dasharray:none;stroke-opacity:1"
       id="rect2464-9-0-28-75"
       width="4.7966051"
       height="33.856754"
       x="39.938812"
       y="173.31436" />
    <rect
       style="fill:none;stroke:#ff0000;stroke-width:0.2;stroke-miterlimit:4;stroke-dasharray:none;stroke-opacity:1"
       id="rect2464-9-0-28-6"
       width="4.7965703"
       height="33.693874"
       x="39.938831"
       y="113.49438" />
    <rect
       style="fill:none;stroke:#ff0000;stroke-width:0.2;stroke-miterlimit:4;stroke-dasharray:none;stroke-opacity:1"
       id="rect2464-9-0-28-1"
       width="4.7969518"
       height="33.387955"
       x="374.92004"
       y="293.36258" />
    <rect
       style="fill:none;stroke:#ff0000;stroke-width:0.2;stroke-miterlimit:4;stroke-dasharray:none;stroke-opacity:1"
       id="rect2464-9-0-28-8-9"
       width="4.796761"
       height="33.855873"
       x="374.92017"
       y="232.97574" />
    <rect
       style="fill:none;stroke:#ff0000;stroke-width:0.2;stroke-miterlimit:4;stroke-dasharray:none;stroke-opacity:1"
       id="rect2464-9-0-28-75-1"
       width="4.7966051"
       height="33.856754"
       x="374.92023"
       y="173.03096" />
    <rect
       style="fill:none;stroke:#ff0000;stroke-width:0.2;stroke-miterlimit:4;stroke-dasharray:none;stroke-opacity:1"
       id="rect2464-9-0-28-6-9"
       width="4.7965703"
       height="33.693874"
       x="374.92026"
       y="113.21101" />
  </g>
</svg>
