No. Trial,No. Participant,Softness,Ref Curvature,First Curvature,Second Curvature,Which one more curved,Curvature judged more curved,Comp more curved than ref?,First Exploring Time,Second Exploring Time,Switching Time
144,7,Rigid,20,16.7,20,first,16.7,1,2.7548248767852783,1.9532389640808105,2.1652071475982666
145,7,Rigid,20,17.6,20,second,20,0,2.744170904159546,2.136120080947876,2.6064839363098145
146,7,Rigid,20,20,17.6,second,17.6,1,2.586787700653076,1.8353967666625977,2.7311244010925293
147,7,Rigid,20,23.1,20,second,20,0,3.508000135421753,2.2357242107391357,2.3253366947174072
148,7,Rigid,20,25,20,second,20,0,3.1437268257141113,2.6101038455963135,2.5211901664733887
149,7,Rigid,20,18.8,20,first,18.8,1,2.7070930004119873,1.750159740447998,2.764580011367798
150,7,Rigid,20,20,16.7,second,16.7,1,2.6040866374969482,1.675236701965332,3.5164122581481934
151,7,Rigid,20,21.4,20,second,20,0,3.0179800987243652,1.7930519580841064,2.7320058345794678
152,7,Rigid,20,20,23.1,first,20,0,2.7933692932128906,1.7336127758026123,2.739758014678955
153,7,Rigid,20,20,25,first,20,0,2.319416046142578,2.1258456707000732,2.659975051879883
154,7,Rigid,20,20,18.8,second,18.8,1,3.4580180644989014,2.0645439624786377,2.384445905685425
155,7,Rigid,20,20,21.4,first,20,0,2.846560001373291,2.0855600833892822,2.753021001815796
156,7,Rigid,20,18.8,20,second,20,0,2.637331008911133,2.972476005554199,2.4593660831451416
157,7,Rigid,20,16.7,20,second,20,0,1.8826839923858643,2.7246227264404297,3.0912551879882812
158,7,Rigid,20,23.1,20,second,20,0,2.811689853668213,1.9095458984375,2.594682216644287
159,7,Rigid,20,20,23.1,first,20,0,2.5403082370758057,1.8662497997283936,2.346395969390869
160,7,Rigid,20,21.4,20,second,20,0,2.920837163925171,1.753938913345337,2.511716842651367
161,7,Rigid,20,20,17.6,second,17.6,1,2.60799503326416,2.30806303024292,2.386359930038452
162,7,Rigid,20,20,16.7,second,16.7,1,3.023221015930176,3.816378116607666,2.473867893218994
163,7,Rigid,20,20,25,first,20,0,3.082754135131836,2.456995964050293,2.4318437576293945
164,7,Rigid,20,20,18.8,second,18.8,1,3.2065887451171875,2.153451919555664,2.3497202396392822
165,7,Rigid,20,25,20,first,25,1,3.2197070121765137,1.8677928447723389,2.7943060398101807
166,7,Rigid,20,17.6,20,first,17.6,1,2.298063039779663,1.5640678405761719,2.8113350868225098
167,7,Rigid,20,20,21.4,first,20,0,3.149571180343628,2.306591033935547,2.556166887283325
168,7,Rigid,20,16.7,20,first,16.7,1,2.2425670623779297,1.316608190536499,2.6173479557037354
169,7,Rigid,20,20,18.8,second,18.8,1,2.9464027881622314,3.498936653137207,2.249310255050659
170,7,Rigid,20,18.8,20,first,18.8,1,3.0662221908569336,2.721370220184326,2.502161741256714
171,7,Rigid,20,20,17.6,second,17.6,1,2.2679078578948975,2.387083053588867,2.3298568725585938
172,7,Rigid,20,25,20,second,20,0,2.653218984603882,1.8530731201171875,2.4671618938446045
173,7,Rigid,20,20,23.1,first,20,0,2.3808608055114746,1.678765058517456,2.5905821323394775
174,7,Rigid,20,23.1,20,second,20,0,2.484766960144043,1.266305923461914,2.522796154022217
175,7,Rigid,20,20,21.4,first,20,0,4.0730509757995605,2.162163019180298,2.190006971359253
176,7,Rigid,20,20,25,first,20,0,3.95924711227417,1.7769010066986084,2.1716599464416504
177,7,Rigid,20,20,16.7,second,16.7,1,2.8500092029571533,1.7577579021453857,2.580349922180176
178,7,Rigid,20,21.4,20,second,20,0,3.095137119293213,2.495469093322754,2.5019259452819824
179,7,Rigid,20,17.6,20,first,17.6,1,2.5850942134857178,2.327224016189575,2.9122419357299805
180,7,00-10,20,20,25,first,20,0,2.9273641109466553,2.750358819961548,2.3047690391540527
181,7,00-10,20,25,20,second,20,0,3.479259729385376,2.0236759185791016,2.2793681621551514
182,7,00-10,20,20,18.8,second,18.8,1,2.70773983001709,3.0687880516052246,2.4317591190338135
183,7,00-10,20,20,21.4,first,20,0,2.14709210395813,2.9692599773406982,2.1786208152770996
184,7,00-10,20,20,16.7,second,16.7,1,4.437741994857788,3.4526360034942627,2.185343027114868
185,7,00-10,20,21.4,20,first,21.4,1,3.926934003829956,3.4441778659820557,2.462754011154175
186,7,00-10,20,18.8,20,first,18.8,1,3.771578073501587,3.0307259559631348,2.285662889480591
187,7,00-10,20,20,17.6,second,17.6,1,2.584073066711426,1.4555327892303467,2.6904191970825195
188,7,00-10,20,16.7,20,first,16.7,1,3.3542122840881348,2.414470911026001,2.37709379196167
189,7,00-10,20,20,23.1,first,20,0,3.4453182220458984,2.52524995803833,3.109212875366211
190,7,00-10,20,17.6,20,first,17.6,1,3.113179922103882,1.9462828636169434,2.443718910217285
191,7,00-10,20,23.1,20,second,20,0,1.9586448669433594,1.9107577800750732,2.581087112426758
192,7,00-10,20,20,17.6,second,17.6,1,1.4810500144958496,1.864516019821167,2.623055934906006
193,7,00-10,20,20,16.7,second,16.7,1,2.4634511470794678,1.6314611434936523,2.2841179370880127
194,7,00-10,20,18.8,20,first,18.8,1,3.1054580211639404,1.8385400772094727,2.5725150108337402
195,7,00-10,20,23.1,20,first,23.1,1,2.4612860679626465,2.4559831619262695,2.419977903366089
196,7,00-10,20,20,25,first,20,0,3.0506348609924316,2.0005290508270264,2.181727170944214
197,7,00-10,20,25,20,second,20,0,2.7792372703552246,3.1236469745635986,2.310365915298462
198,7,00-10,20,16.7,20,first,16.7,1,0.17700409889221191,1.7795488834381104,4.780619859695435
199,7,00-10,20,17.6,20,first,17.6,1,2.388099193572998,2.527099132537842,2.033756732940674
200,7,00-10,20,20,18.8,second,18.8,1,2.364319086074829,2.1467032432556152,2.448962688446045
201,7,00-10,20,20,23.1,first,20,0,2.524033784866333,2.5803236961364746,2.475825309753418
202,7,00-10,20,20,21.4,first,20,0,2.1475658416748047,3.088470935821533,2.0122129917144775
203,7,00-10,20,21.4,20,second,20,0,2.2180840969085693,2.0638420581817627,2.398695945739746
204,7,00-10,20,20,23.1,second,23.1,1,2.169232130050659,2.980074882507324,2.646735906600952
205,7,00-10,20,20,25,first,20,0,2.909925937652588,1.2743608951568604,2.5143539905548096
206,7,00-10,20,25,20,first,25,1,0.3678929805755615,4.483429670333862,3.3364932537078857
207,7,00-10,20,23.1,20,second,20,0,3.3834340572357178,3.013010025024414,2.4435079097747803
208,7,00-10,20,16.7,20,first,16.7,1,3.2873988151550293,2.033151865005493,2.137639045715332
209,7,00-10,20,18.8,20,first,18.8,1,2.258474826812744,1.412658929824829,2.316467046737671
210,7,00-10,20,21.4,20,second,20,0,2.878063917160034,2.291506052017212,2.5666048526763916
211,7,00-10,20,17.6,20,first,17.6,1,2.567276954650879,1.7106013298034668,2.2496237754821777
212,7,00-10,20,20,18.8,second,18.8,1,1.8440520763397217,1.853672981262207,2.3446409702301025
213,7,00-10,20,20,17.6,second,17.6,1,3.0656368732452393,1.705212116241455,2.3191640377044678
214,7,00-10,20,20,21.4,first,20,0,1.5736303329467773,3.993424892425537,2.153331756591797
215,7,00-10,20,20,16.7,second,16.7,1,2.866925001144409,1.790241003036499,2.3160598278045654
216,7,A-30,20,20,21.4,second,21.4,1,1.6418139934539795,3.6364407539367676,2.215736150741577
217,7,A-30,20,20,23.1,first,20,0,2.426520824432373,2.170030117034912,4.345957040786743
218,7,A-30,20,25,20,second,20,0,2.4771289825439453,2.536959171295166,2.433623790740967
219,7,A-30,20,20,25,first,20,0,2.6805028915405273,1.6943130493164062,2.6534500122070312
220,7,A-30,20,17.6,20,first,17.6,1,1.776012897491455,2.135593891143799,2.274057149887085
221,7,A-30,20,21.4,20,second,20,0,2.9926440715789795,2.010089874267578,2.1120238304138184
222,7,A-30,20,16.7,20,first,16.7,1,2.7771809101104736,1.6554827690124512,2.0207102298736572
223,7,A-30,20,20,18.8,second,18.8,1,2.899200916290283,3.34680438041687,2.3520867824554443
224,7,A-30,20,20,16.7,second,16.7,1,3.335829019546509,2.2118988037109375,2.2446582317352295
225,7,A-30,20,18.8,20,second,20,0,2.9775071144104004,3.1587681770324707,2.317401885986328
226,7,A-30,20,23.1,20,second,20,0,2.3930046558380127,2.292689800262451,2.247056245803833
227,7,A-30,20,20,17.6,second,17.6,1,2.2821109294891357,3.734400987625122,2.275182008743286
228,7,A-30,20,23.1,20,second,20,0,1.9769799709320068,2.0871918201446533,2.1248419284820557
229,7,A-30,20,25,20,second,20,0,2.6028311252593994,2.7317137718200684,2.3748741149902344
230,7,A-30,20,17.6,20,first,17.6,1,2.1564929485321045,2.0134730339050293,2.3564422130584717
231,7,A-30,20,20,21.4,first,20,0,2.055877923965454,2.2605719566345215,2.3389391899108887
232,7,A-30,20,18.8,20,first,18.8,1,2.27738094329834,2.4870898723602295,2.2152161598205566
233,7,A-30,20,20,18.8,first,20,0,3.055314064025879,4.416682243347168,3.695143938064575
234,7,A-30,20,20,17.6,second,17.6,1,2.9806430339813232,1.5441651344299316,2.12727689743042
235,7,A-30,20,16.7,20,first,16.7,1,2.9091131687164307,1.7977206707000732,2.565376043319702
236,7,A-30,20,21.4,20,second,20,0,2.524657964706421,1.3121299743652344,2.2086920738220215
237,7,A-30,20,20,16.7,second,16.7,1,2.707472801208496,2.0310909748077393,2.066176176071167
238,7,A-30,20,20,25,first,20,0,2.7553911209106445,1.9073960781097412,2.3544960021972656
239,7,A-30,20,20,23.1,first,20,0,2.716330051422119,1.442579984664917,2.3109748363494873
240,7,A-30,20,23.1,20,second,20,0,2.759815216064453,2.1088149547576904,2.2115650177001953
241,7,A-30,20,20,23.1,first,20,0,2.418823003768921,2.5968821048736572,2.0022408962249756
242,7,A-30,20,25,20,second,20,0,1.9006068706512451,1.2905237674713135,2.4189512729644775
243,7,A-30,20,20,18.8,second,18.8,1,2.453263759613037,2.414423942565918,2.46553111076355
244,7,A-30,20,20,25,first,20,0,4.314001798629761,1.6332981586456299,2.0939180850982666
245,7,A-30,20,16.7,20,first,16.7,1,2.468308925628662,1.82936692237854,2.0742032527923584
246,7,A-30,20,18.8,20,first,18.8,1,3.0039570331573486,2.95607590675354,2.0805821418762207
247,7,A-30,20,20,21.4,first,20,0,3.8008670806884766,2.3354036808013916,2.1222002506256104
248,7,A-30,20,17.6,20,first,17.6,1,3.10261607170105,2.2206268310546875,2.0781781673431396
249,7,A-30,20,21.4,20,second,20,0,3.242173910140991,2.3657758235931396,2.134016990661621
250,7,A-30,20,20,17.6,second,17.6,1,2.034008741378784,3.4392189979553223,2.3532400131225586
251,7,A-30,20,20,16.7,second,16.7,1,2.8419089317321777,3.9381918907165527,2.260275363922119
252,7,00-50,20,20,23.1,first,20,0,1.2459769248962402,2.2724788188934326,2.070113182067871
253,7,00-50,20,20,21.4,first,20,0,2.101536989212036,3.874447822570801,2.169800281524658
254,7,00-50,20,17.6,20,first,17.6,1,3.326828956604004,2.203033208847046,2.2485809326171875
255,7,00-50,20,21.4,20,first,21.4,1,2.5125739574432373,3.132469415664673,2.163404703140259
256,7,00-50,20,20,18.8,second,18.8,1,2.4588873386383057,2.1763079166412354,2.1942079067230225
257,7,00-50,20,16.7,20,first,16.7,1,2.426225185394287,2.4943900108337402,2.6217148303985596
258,7,00-50,20,20,17.6,second,17.6,1,2.8880059719085693,3.011051893234253,2.0421230792999268
259,7,00-50,20,20,16.7,second,16.7,1,2.961318016052246,2.722127914428711,2.260780096054077
260,7,00-50,20,25,20,second,20,0,2.070255756378174,1.900838851928711,2.257378101348877
261,7,00-50,20,20,25,first,20,0,3.2574410438537598,2.614772081375122,2.121976852416992
262,7,00-50,20,18.8,20,first,18.8,1,2.5579371452331543,1.7605910301208496,2.1601109504699707
263,7,00-50,20,23.1,20,second,20,0,2.7745401859283447,2.0420188903808594,2.2152280807495117
264,7,00-50,20,16.7,20,first,16.7,1,1.5599839687347412,3.355569839477539,2.1260621547698975
265,7,00-50,20,25,20,second,20,0,1.994734764099121,2.588724136352539,1.9841430187225342
266,7,00-50,20,20,18.8,second,18.8,1,2.593360185623169,1.9246060848236084,2.3667948246002197
267,7,00-50,20,17.6,20,first,17.6,1,3.0701560974121094,1.402087926864624,2.2167418003082275
268,7,00-50,20,21.4,20,first,21.4,1,2.797818899154663,2.5179800987243652,2.444808006286621
269,7,00-50,20,18.8,20,first,18.8,1,1.7920238971710205,1.6441349983215332,2.3260819911956787
270,7,00-50,20,20,16.7,second,16.7,1,1.9775340557098389,1.762300968170166,2.5817949771881104
271,7,00-50,20,20,17.6,second,17.6,1,2.8189990520477295,1.566598892211914,2.2949039936065674
272,7,00-50,20,20,25,first,20,0,2.150560140609741,1.7832739353179932,2.495905876159668
273,7,00-50,20,20,21.4,second,21.4,1,2.018691062927246,2.379678964614868,2.175672769546509
274,7,00-50,20,20,23.1,first,20,0,2.344688892364502,2.0453498363494873,2.0598442554473877
275,7,00-50,20,23.1,20,second,20,0,2.320521116256714,1.332705020904541,2.4580771923065186
276,7,00-50,20,20,23.1,first,20,0,2.0124998092651367,1.408966064453125,1.9426209926605225
277,7,00-50,20,20,16.7,second,16.7,1,1.3723280429840088,1.6598620414733887,2.0826900005340576
278,7,00-50,20,20,21.4,first,20,0,1.6057510375976562,2.451103925704956,2.073550224304199
279,7,00-50,20,20,18.8,second,18.8,1,2.5960192680358887,2.150498867034912,2.074159860610962
280,7,00-50,20,20,25,first,20,0,2.707935333251953,1.3721070289611816,2.538768768310547
281,7,00-50,20,16.7,20,first,16.7,1,2.8423397541046143,2.1643800735473633,2.194957971572876
282,7,00-50,20,25,20,second,20,0,3.16697096824646,1.5885610580444336,2.3147921562194824
283,7,00-50,20,17.6,20,first,17.6,1,2.2571048736572266,2.054427146911621,2.3787620067596436
284,7,00-50,20,20,17.6,first,20,0,1.8008670806884766,1.9721570014953613,2.2198688983917236
285,7,00-50,20,23.1,20,second,20,0,2.3694870471954346,1.57364821434021,2.4429519176483154
286,7,00-50,20,18.8,20,first,18.8,1,2.096745014190674,1.234985113143921,2.3919758796691895
287,7,00-50,20,21.4,20,second,20,0,2.0151779651641846,2.1121270656585693,2.6604058742523193
