No. Trial,No. Participant,Softness,Ref Curvature,First Curvature,Second Curvature,Which one more curved,Curvature judged more curved,Comp more curved than ref?,First Exploring Time,Second Exploring Time,Switching Time
0,2,A-30,40,32.3,40,first,32.3,1,9.26639699935913,2.9005751609802246,2.8333001136779785
1,2,A-30,40,40,43.5,first,40,0,5.5665740966796875,9.282948017120361,2.1332478523254395
2,2,A-30,40,47.6,40,second,40,0,6.217190980911255,3.9505350589752197,2.449434995651245
3,2,A-30,40,34.5,40,first,34.5,1,4.8831329345703125,2.7841241359710693,2.3331639766693115
4,2,A-30,40,40,47.6,first,40,0,5.583622217178345,3.832336902618408,2.1667938232421875
5,2,A-30,40,40,34.5,first,40,0,6.016786813735962,4.533780097961426,2.0666589736938477
6,2,A-30,40,37.0,40,first,37.0,1,5.100060939788818,4.583289861679077,2.466691017150879
7,2,A-30,40,43.5,40,second,40,0,5.583407878875732,5.084062099456787,2.116658926010132
8,2,A-30,40,40,32.3,first,40,0,6.166755199432373,5.583089828491211,2.1166861057281494
9,2,A-30,40,52.6,40,second,40,0,7.433428049087524,2.416952133178711,2.300029993057251
10,2,A-30,40,40,52.6,first,40,0,5.299493789672852,3.467198133468628,2.2666139602661133
11,2,A-30,40,40,37.0,second,37.0,1,4.35007119178772,3.1165928840637207,2.28324294090271
12,2,A-30,40,40,37.0,second,37.0,1,4.033847093582153,3.0333340167999268,2.2495319843292236
13,2,A-30,40,34.5,40,second,40,0,5.716683864593506,2.1999311447143555,2.3334269523620605
14,2,A-30,40,43.5,40,first,43.5,1,5.483313798904419,5.683187007904053,2.8333420753479004
15,2,A-30,40,40,43.5,first,40,0,5.44974684715271,3.5999059677124023,2.2999560832977295
16,2,A-30,40,52.6,40,second,40,0,4.966714859008789,2.7839128971099854,2.466644048690796
17,2,A-30,40,40,34.5,second,34.5,1,3.96596097946167,3.017261028289795,2.249988079071045
18,2,A-30,40,40,32.3,first,40,0,5.750097036361694,11.58327603340149,2.1332790851593018
19,2,A-30,40,40,52.6,first,40,0,5.3995208740234375,2.683567762374878,2.61667799949646
20,2,A-30,40,40,47.6,first,40,0,5.063030004501343,3.1751596927642822,2.1282742023468018
21,2,A-30,40,32.3,40,first,32.3,1,4.964059352874756,8.59743618965149,2.098829746246338
22,2,A-30,40,47.6,40,second,40,0,8.482492923736572,6.01615571975708,2.1500353813171387
23,2,A-30,40,37.0,40,first,37.0,1,7.099183797836304,2.115614891052246,2.251051187515259
24,2,A-30,40,40,47.6,first,40,0,6.900822877883911,5.417110919952393,2.299154043197632
25,2,A-30,40,47.6,40,second,40,0,7.199954032897949,4.583299160003662,2.1668059825897217
26,2,A-30,40,40,43.5,first,40,0,6.967002868652344,3.183277130126953,2.716209888458252
27,2,A-30,40,43.5,40,second,40,0,8.166652202606201,6.333329916000366,2.2165660858154297
28,2,A-30,40,40,32.3,second,32.3,1,7.199904918670654,7.4341349601745605,2.1666030883789062
29,2,A-30,40,40,34.5,second,34.5,1,5.8502020835876465,4.600719928741455,2.2164621353149414
30,2,A-30,40,40,37.0,second,37.0,1,6.199386835098267,5.083248853683472,2.350041151046753
31,2,A-30,40,34.5,40,first,34.5,1,6.700326919555664,9.399729013442993,2.1332459449768066
32,2,A-30,40,32.3,40,first,32.3,1,7.449862957000732,4.615937948226929,2.2673048973083496
33,2,A-30,40,37.0,40,first,37.0,1,7.5669920444488525,4.8666090965271,2.316243886947632
34,2,A-30,40,40,52.6,first,40,0,7.232746839523315,4.782747983932495,2.767102003097534
35,2,A-30,40,52.6,40,second,40,0,8.283269166946411,5.8839430809021,2.4666218757629395
36,2,Rigid,40,40,37.0,first,40,0,5.999945878982544,4.881775140762329,2.818284034729004
37,2,Rigid,40,47.6,40,second,40,0,5.33425498008728,3.399703025817871,2.18265700340271
38,2,Rigid,40,52.6,40,second,40,0,7.550856828689575,2.4999496936798096,2.599090337753296
39,2,Rigid,40,40,34.5,second,34.5,1,5.599907875061035,4.1166441440582275,2.999979019165039
40,2,Rigid,40,40,32.3,second,32.3,1,6.866536855697632,5.967242956161499,2.2667248249053955
41,2,Rigid,40,32.3,40,first,32.3,1,6.783308982849121,4.166672945022583,2.3999249935150146
42,2,Rigid,40,34.5,40,first,34.5,1,6.89994215965271,4.265839099884033,2.2007648944854736
43,2,Rigid,40,40,47.6,first,40,0,10.183605194091797,7.299843072891235,2.5828588008880615
44,2,Rigid,40,40,43.5,first,40,0,5.516502857208252,7.684288024902344,2.3995862007141113
45,2,Rigid,40,43.5,40,second,40,0,7.150768995285034,13.984858989715576,2.949138879776001
46,2,Rigid,40,37.0,40,first,37.0,1,7.0498998165130615,4.2832770347595215,2.349938154220581
47,2,Rigid,40,40,52.6,second,52.6,1,9.477720975875854,7.0776588916778564,2.431879997253418
48,2,Rigid,40,37.0,40,first,37.0,1,7.265754222869873,2.884495973587036,2.2833058834075928
49,2,Rigid,40,40,34.5,second,34.5,1,5.016607046127319,3.5499260425567627,2.3499910831451416
50,2,Rigid,40,40,52.6,first,40,0,6.200466156005859,2.599940061569214,2.365983009338379
51,2,Rigid,40,40,37.0,second,37.0,1,6.800107002258301,3.9165961742401123,2.983633041381836
52,2,Rigid,40,40,43.5,first,40,0,6.316701889038086,8.283265113830566,2.299916982650757
53,2,Rigid,40,47.6,40,first,47.6,1,8.14998722076416,7.000322103500366,2.266589879989624
54,2,Rigid,40,40,47.6,first,40,0,8.916599988937378,6.733425855636597,2.2999320030212402
55,2,Rigid,40,32.3,40,first,32.3,1,6.7334418296813965,3.916666269302368,2.1830928325653076
56,2,Rigid,40,34.5,40,first,34.5,1,5.033441781997681,7.616286039352417,2.166778087615967
57,2,Rigid,40,52.6,40,second,40,0,9.499845266342163,5.733169794082642,2.11673903465271
58,2,Rigid,40,40,32.3,second,32.3,1,6.816555976867676,2.9834418296813965,2.2332680225372314
59,2,Rigid,40,43.5,40,first,43.5,1,7.983235120773315,4.649734020233154,3.250102996826172
60,2,Rigid,40,43.5,40,first,43.5,1,7.099930047988892,3.2656819820404053,3.2509539127349854
61,2,Rigid,40,40,32.3,second,32.3,1,7.166716814041138,5.033297777175903,2.7332351207733154
62,2,Rigid,40,40,47.6,second,47.6,1,7.316593170166016,7.733197212219238,2.399932861328125
63,2,Rigid,40,34.5,40,first,34.5,1,6.5165910720825195,4.850346088409424,2.4499590396881104
64,2,Rigid,40,52.6,40,second,40,0,4.667252779006958,5.9333202838897705,2.2826030254364014
65,2,Rigid,40,32.3,40,first,32.3,1,4.733436107635498,4.633096933364868,2.333735942840576
66,2,Rigid,40,47.6,40,second,40,0,7.533273220062256,5.6159348487854,2.4006361961364746
67,2,Rigid,40,40,43.5,first,40,0,7.033307075500488,10.133187055587769,2.399951934814453
68,2,Rigid,40,37.0,40,first,37.0,1,6.666707992553711,4.199810028076172,2.2000279426574707
69,2,Rigid,40,40,34.5,second,34.5,1,8.533239126205444,5.698702096939087,2.4011788368225098
70,2,Rigid,40,40,52.6,second,52.6,1,8.11658787727356,4.499176979064941,2.4174458980560303
71,2,Rigid,40,40,37.0,second,37.0,1,7.183385848999023,3.899661064147949,2.2836430072784424
72,2,00-50,40,32.3,40,first,32.3,1,11.250169038772583,7.5322229862213135,2.8342630863189697
73,2,00-50,40,37.0,40,first,37.0,1,11.882445096969604,10.233386993408203,2.433361053466797
74,2,00-50,40,40,43.5,second,43.5,1,10.315028190612793,10.215642213821411,2.284146785736084
75,2,00-50,40,40,32.3,second,32.3,1,9.349867105484009,8.016696214675903,2.600008726119995
76,2,00-50,40,40,34.5,second,34.5,1,9.549978017807007,6.616527080535889,2.6169159412384033
77,2,00-50,40,52.6,40,second,40,0,9.11601185798645,4.833348989486694,2.300023078918457
78,2,00-50,40,40,52.6,first,40,0,9.266764163970947,5.534692049026489,2.8166117668151855
79,2,00-50,40,47.6,40,second,40,0,9.298702955245972,6.733247995376587,2.73305082321167
80,2,00-50,40,34.5,40,second,40,0,10.300572156906128,6.333258152008057,2.516197681427002
81,2,00-50,40,40,47.6,first,40,0,5.566772937774658,5.450403928756714,2.4666121006011963
82,2,00-50,40,43.5,40,second,40,0,9.549939393997192,7.766596794128418,2.6667919158935547
83,2,00-50,40,40,37.0,first,40,0,9.382944822311401,10.45003867149353,2.3336892127990723
84,2,00-50,40,40,34.5,second,34.5,1,5.250104188919067,3.966672897338867,2.3499350547790527
85,2,00-50,40,40,37.0,second,37.0,1,6.281876087188721,4.2011799812316895,2.249985933303833
86,2,00-50,40,47.6,40,second,40,0,6.983418941497803,3.766637086868286,2.3667140007019043
87,2,00-50,40,40,32.3,second,32.3,1,10.650109052658081,3.8993117809295654,2.4672911167144775
88,2,00-50,40,52.6,40,second,40,0,9.299360990524292,3.0333330631256104,2.400036096572876
89,2,00-50,40,40,47.6,first,40,0,5.000064134597778,5.600461959838867,2.2999608516693115
90,2,00-50,40,43.5,40,second,40,0,6.732316970825195,5.216695070266724,2.516634225845337
91,2,00-50,40,32.3,40,first,32.3,1,7.800045013427734,12.165462017059326,2.5013110637664795
92,2,00-50,40,40,43.5,second,43.5,1,9.900030851364136,5.6172449588775635,2.399982213973999
93,2,00-50,40,37.0,40,second,40,0,9.516778945922852,5.467005014419556,2.433366060256958
94,2,00-50,40,40,52.6,first,40,0,7.466835975646973,3.33341908454895,2.4999489784240723
95,2,00-50,40,34.5,40,second,40,0,7.116714239120483,6.366678953170776,2.483332872390747
96,2,00-50,40,40,37.0,first,40,0,6.100291967391968,8.131947994232178,2.4845938682556152
97,2,00-50,40,32.3,40,second,40,0,8.283276081085205,3.2166779041290283,2.366706132888794
98,2,00-50,40,40,32.3,second,32.3,1,6.483414888381958,5.832918882369995,2.4170310497283936
99,2,00-50,40,43.5,40,second,40,0,7.2000041007995605,7.483304023742676,2.5166778564453125
100,2,00-50,40,47.6,40,second,40,0,10.915952920913696,3.4835808277130127,2.383333206176758
101,2,00-50,40,40,43.5,second,43.5,1,8.700145721435547,5.266953945159912,2.616612195968628
102,2,00-50,40,40,52.6,first,40,0,6.916612863540649,3.9833412170410156,2.383328914642334
103,2,00-50,40,52.6,40,second,40,0,8.583292722702026,6.14992618560791,2.333376169204712
104,2,00-50,40,34.5,40,first,34.5,1,6.499994993209839,6.700324058532715,2.5000689029693604
105,2,00-50,40,37.0,40,second,40,0,10.20023488998413,11.199532985687256,2.5670671463012695
106,2,00-50,40,40,47.6,first,40,0,9.51558518409729,8.533227920532227,2.133405923843384
107,2,00-50,40,40,34.5,second,34.5,1,6.268274784088135,11.26668095588684,2.6983370780944824
108,2,00-10,40,40,47.6,first,40,0,5.716386079788208,18.83339500427246,2.4999799728393555
109,2,00-10,40,40,32.3,second,32.3,1,14.684628009796143,5.617125749588013,2.2320950031280518
110,2,00-10,40,47.6,40,second,40,0,11.032787799835205,4.100103139877319,2.466581106185913
111,2,00-10,40,40,34.5,second,34.5,1,10.600397825241089,10.84908390045166,2.750490188598633
112,2,00-10,40,40,52.6,first,40,0,7.11669397354126,9.698584079742432,2.3849449157714844
113,2,00-10,40,32.3,40,second,40,0,11.25015139579773,6.9829161167144775,2.5670626163482666
114,2,00-10,40,40,37.0,second,37.0,1,10.633561134338379,8.183068037033081,2.449816942214966
115,2,00-10,40,52.6,40,second,40,0,6.283977270126343,7.316853046417236,2.449246883392334
116,2,00-10,40,37.0,40,first,37.0,1,9.400539875030518,14.782480955123901,2.417241096496582
117,2,00-10,40,43.5,40,second,40,0,8.632985830307007,9.333397150039673,2.216620922088623
118,2,00-10,40,40,43.5,second,43.5,1,7.099923133850098,7.4348227977752686,2.233549118041992
119,2,00-10,40,34.5,40,second,40,0,5.1833930015563965,8.116872072219849,2.0666770935058594
120,2,00-10,40,40,43.5,second,43.5,1,5.332764148712158,3.983445882797241,2.333292007446289
121,2,00-10,40,32.3,40,second,40,0,6.483309984207153,6.48337721824646,3.1500349044799805
122,2,00-10,40,47.6,40,second,40,0,12.700691938400269,5.400034189224243,2.549330949783325
123,2,00-10,40,40,34.5,second,34.5,1,8.382167100906372,11.949678182601929,2.6336498260498047
124,2,00-10,40,40,52.6,second,52.6,1,12.750209093093872,6.64983606338501,3.1004998683929443
125,2,00-10,40,40,32.3,second,32.3,1,7.299676895141602,7.299939155578613,2.4999659061431885
126,2,00-10,40,52.6,40,second,40,0,14.283384084701538,6.6323230266571045,2.3510191440582275
127,2,00-10,40,43.5,40,first,43.5,1,7.783308029174805,4.849955081939697,2.7835168838500977
128,2,00-10,40,40,47.6,second,47.6,1,10.783360004425049,6.650846004486084,2.466738224029541
129,2,00-10,40,40,37.0,second,37.0,1,12.432593822479248,15.166541814804077,2.5169951915740967
130,2,00-10,40,34.5,40,first,34.5,1,4.798094987869263,3.332688808441162,2.8837900161743164
131,2,00-10,40,37.0,40,first,37.0,1,8.300043106079102,2.665390968322754,2.5679690837860107
132,2,00-10,40,47.6,40,second,40,0,4.899435043334961,3.883307695388794,2.283377170562744
133,2,00-10,40,32.3,40,second,40,0,4.833271026611328,5.2662458419799805,3.383430242538452
134,2,00-10,40,52.6,40,second,40,0,5.466723203659058,3.884666919708252,2.666604995727539
135,2,00-10,40,43.5,40,first,43.5,1,6.999997138977051,8.714972019195557,3.2854208946228027
136,2,00-10,40,40,52.6,first,40,0,11.200098991394043,8.683541774749756,2.516599178314209
137,2,00-10,40,40,47.6,second,47.6,1,10.366776943206787,7.83355975151062,2.3000452518463135
138,2,00-10,40,37.0,40,second,40,0,6.066624879837036,5.733361721038818,2.500122308731079
139,2,00-10,40,40,32.3,second,32.3,1,5.734925985336304,4.483284950256348,2.531907081604004
140,2,00-10,40,40,34.5,second,34.5,1,10.800070762634277,3.999969005584717,2.0833661556243896
141,2,00-10,40,34.5,40,second,40,0,8.015444993972778,11.01695704460144,2.4000439643859863
142,2,00-10,40,40,37.0,second,37.0,1,7.683780193328857,3.0823419094085693,2.6170120239257812
143,2,00-10,40,40,43.5,second,43.5,1,8.03425407409668,6.583173990249634,2.6158249378204346
