No. Trial,No. Participant,Softness,Ref Curvature,First Curvature,Second Curvature,Which one more curved,Curvature judged more curved,Comp more curved than ref?,First Exploring Time,Second Exploring Time,Switching Time
0,6,A-30,20,20,21.4,first,20,0,7.412115812301636,1.3462390899658203,0.3347048759460449
1,6,A-30,20,20,17.6,second,17.6,1,3.2918670177459717,2.1781418323516846,2.993354082107544
2,6,A-30,20,25,20,second,20,0,3.17657208442688,2.706256866455078,2.377295970916748
3,6,A-30,20,17.6,20,first,17.6,1,5.598357915878296,3.339294195175171,2.520206928253174
4,6,A-30,20,20,23.1,first,20,0,4.18936014175415,2.1085269451141357,2.366528034210205
5,6,A-30,20,23.1,20,second,20,0,3.267676830291748,2.510571002960205,2.1340880393981934
6,6,A-30,20,20,18.8,second,18.8,1,2.896712303161621,2.0642290115356445,2.639953851699829
7,6,A-30,20,16.7,20,first,16.7,1,4.221341848373413,5.098912954330444,2.0224289894104004
8,6,A-30,20,18.8,20,first,18.8,1,4.574548959732056,1.5726609230041504,2.153615951538086
9,6,A-30,20,20,16.7,second,16.7,1,2.955650806427002,1.7378079891204834,2.1388981342315674
10,6,A-30,20,21.4,20,first,21.4,1,3.934438943862915,3.54243803024292,3.192426919937134
11,6,A-30,20,20,25,first,20,0,2.619640827178955,3.520717144012451,2.1685309410095215
12,6,A-30,20,20,21.4,first,20,0,1.8627161979675293,2.0513153076171875,2.071096897125244
13,6,A-30,20,21.4,20,first,21.4,1,2.8535690307617188,2.080739736557007,2.616787910461426
14,6,A-30,20,20,23.1,first,20,0,4.539432048797607,1.791698932647705,2.14892315864563
15,6,A-30,20,18.8,20,second,20,0,3.312268018722534,2.664383888244629,2.067770004272461
16,6,A-30,20,20,17.6,first,20,0,3.1646111011505127,2.050800085067749,2.1987268924713135
17,6,A-30,20,16.7,20,first,16.7,1,3.5819602012634277,3.2629899978637695,2.2966060638427734
18,6,A-30,20,20,25,first,20,0,2.1320419311523438,2.8419430255889893,1.906749963760376
19,6,A-30,20,20,18.8,second,18.8,1,1.8754949569702148,1.8442449569702148,2.2194859981536865
20,6,A-30,20,23.1,20,second,20,0,4.673206567764282,2.8347091674804688,9.398591995239258
21,6,A-30,20,17.6,20,first,17.6,1,3.314708948135376,2.2668142318725586,2.1670289039611816
22,6,A-30,20,20,16.7,second,16.7,1,3.895479202270508,1.8966212272644043,2.189786672592163
23,6,A-30,20,25,20,second,20,0,3.9160449504852295,1.4748210906982422,2.51800799369812
24,6,A-30,20,16.7,20,first,16.7,1,4.204388856887817,6.241974115371704,2.0644450187683105
25,6,A-30,20,20,25,first,20,0,2.4710049629211426,2.266824960708618,2.187199831008911
26,6,A-30,20,20,21.4,first,20,0,3.0386898517608643,3.1376729011535645,2.0213630199432373
27,6,A-30,20,17.6,20,first,17.6,1,5.981737852096558,3.957247018814087,2.1684889793395996
28,6,A-30,20,20,18.8,second,18.8,1,2.484938859939575,2.993143081665039,2.1189661026000977
29,6,A-30,20,20,16.7,second,16.7,1,2.7719929218292236,2.2792961597442627,2.1922359466552734
30,6,A-30,20,20,17.6,second,17.6,1,2.658669948577881,1.7680671215057373,2.0806469917297363
31,6,A-30,20,21.4,20,second,20,0,1.787787675857544,1.4948358535766602,2.2780611515045166
32,6,A-30,20,23.1,20,second,20,0,4.090005874633789,2.5779800415039062,2.3552629947662354
33,6,A-30,20,25,20,second,20,0,3.1312167644500732,2.539173126220703,2.222928047180176
34,6,A-30,20,18.8,20,second,20,0,3.4113857746124268,3.443742275238037,2.3722879886627197
35,6,A-30,20,20,23.1,first,20,0,2.0218639373779297,3.2057621479034424,2.067013740539551
36,6,Rigid,20,25,20,second,20,0,5.797024965286255,2.540483236312866,2.2860848903656006
37,6,Rigid,20,21.4,20,second,20,0,6.1046037673950195,2.4259321689605713,2.1255810260772705
38,6,Rigid,20,18.8,20,second,20,0,4.4208879470825195,3.551990032196045,2.2939798831939697
39,6,Rigid,20,20,21.4,first,20,0,4.492267847061157,2.3212661743164062,2.231145143508911
40,6,Rigid,20,16.7,20,second,20,0,5.0140790939331055,3.7923829555511475,3.1845638751983643
41,6,Rigid,20,20,17.6,second,17.6,1,4.91060996055603,3.7740979194641113,2.2834510803222656
42,6,Rigid,20,20,25,first,20,0,4.128124952316284,3.0040998458862305,2.3877060413360596
43,6,Rigid,20,20,16.7,second,16.7,1,2.585202932357788,2.6351261138916016,2.290656089782715
44,6,Rigid,20,20,18.8,second,18.8,1,3.730576992034912,3.4561328887939453,2.2340660095214844
45,6,Rigid,20,23.1,20,second,20,0,4.843456745147705,3.549743175506592,2.0963330268859863
46,6,Rigid,20,17.6,20,first,17.6,1,4.002225875854492,2.0068671703338623,2.2283198833465576
47,6,Rigid,20,20,23.1,first,20,0,3.7286460399627686,2.3261899948120117,2.5729379653930664
48,6,Rigid,20,20,21.4,first,20,0,5.349682807922363,1.9968299865722656,2.2518012523651123
49,6,Rigid,20,23.1,20,second,20,0,3.750821113586426,3.1709089279174805,2.4049007892608643
50,6,Rigid,20,18.8,20,second,20,0,4.093324899673462,3.506265163421631,2.795750856399536
51,6,Rigid,20,16.7,20,first,16.7,1,5.0342793464660645,2.455604076385498,3.9929866790771484
52,6,Rigid,20,25,20,second,20,0,4.201326131820679,2.624616861343384,2.912770986557007
53,6,Rigid,20,21.4,20,first,21.4,1,4.888415098190308,4.478201866149902,3.6802401542663574
54,6,Rigid,20,20,23.1,first,20,0,2.909425973892212,4.124704837799072,2.3496081829071045
55,6,Rigid,20,20,18.8,second,18.8,1,4.52951979637146,2.6079061031341553,2.5607810020446777
56,6,Rigid,20,20,16.7,second,16.7,1,5.274646043777466,4.235027074813843,2.7664899826049805
57,6,Rigid,20,20,25,first,20,0,4.58098030090332,3.2545669078826904,2.468167781829834
58,6,Rigid,20,17.6,20,first,17.6,1,3.8006210327148438,2.5905799865722656,3.2900450229644775
59,6,Rigid,20,20,17.6,second,17.6,1,3.02307391166687,2.4581849575042725,2.695626974105835
60,6,Rigid,20,20,25,first,20,0,2.4340617656707764,1.882364273071289,6.221249103546143
61,6,Rigid,20,21.4,20,second,20,0,3.345231771469116,3.023853063583374,2.3495171070098877
62,6,Rigid,20,20,21.4,second,21.4,1,2.973107099533081,3.0169918537139893,2.522359848022461
63,6,Rigid,20,20,18.8,second,18.8,1,2.3101749420166016,2.0713889598846436,2.911073923110962
64,6,Rigid,20,20,16.7,second,16.7,1,3.3708877563476562,1.8338649272918701,2.489751100540161
65,6,Rigid,20,17.6,20,first,17.6,1,2.979506015777588,2.3620800971984863,2.513509750366211
66,6,Rigid,20,20,23.1,second,23.1,1,3.526757001876831,4.005522012710571,2.3274219036102295
67,6,Rigid,20,25,20,second,20,0,2.7251501083374023,3.9569501876831055,2.3421199321746826
68,6,Rigid,20,18.8,20,first,18.8,1,4.83119010925293,1.752924919128418,2.037308931350708
69,6,Rigid,20,23.1,20,second,20,0,2.139266014099121,1.9295191764831543,2.599512815475464
70,6,Rigid,20,16.7,20,first,16.7,1,2.754997968673706,2.0589840412139893,2.320620059967041
71,6,Rigid,20,20,17.6,second,17.6,1,2.677341938018799,2.341181993484497,2.2888259887695312
72,6,00-50,20,25,20,first,25,1,2.628386974334717,1.7644269466400146,2.0260121822357178
73,6,00-50,20,20,17.6,second,17.6,1,2.6480050086975098,2.3270821571350098,2.869534969329834
74,6,00-50,20,16.7,20,first,16.7,1,3.7817320823669434,3.0954627990722656,2.2386491298675537
75,6,00-50,20,18.8,20,first,18.8,1,3.6132259368896484,3.6475961208343506,2.490445137023926
76,6,00-50,20,20,21.4,second,21.4,1,4.2959983348846436,3.5028319358825684,2.1806578636169434
77,6,00-50,20,23.1,20,second,20,0,4.50136399269104,4.356216192245483,2.1939687728881836
78,6,00-50,20,17.6,20,first,17.6,1,6.52314019203186,4.837193965911865,2.0195388793945312
79,6,00-50,20,20,18.8,second,18.8,1,4.286109924316406,2.877506971359253,2.113150119781494
80,6,00-50,20,21.4,20,first,21.4,1,2.934749126434326,3.1465840339660645,3.231449842453003
81,6,00-50,20,20,25,first,20,0,3.36263108253479,2.8798940181732178,2.1845479011535645
82,6,00-50,20,20,16.7,second,16.7,1,3.2653391361236572,2.9758288860321045,2.323517084121704
83,6,00-50,20,20,23.1,first,20,0,3.5175039768218994,4.584459066390991,2.156764268875122
84,6,00-50,20,16.7,20,first,16.7,1,2.837177276611328,2.244739055633545,2.0289957523345947
85,6,00-50,20,23.1,20,second,20,0,2.4541330337524414,2.0790112018585205,1.8909788131713867
86,6,00-50,20,20,17.6,second,17.6,1,2.776336908340454,3.094021797180176,2.0371880531311035
87,6,00-50,20,25,20,second,20,0,2.7344810962677,1.8541667461395264,2.099372148513794
88,6,00-50,20,20,16.7,first,20,0,3.159719944000244,2.4338576793670654,2.390019178390503
89,6,00-50,20,21.4,20,second,20,0,2.355672836303711,4.125216960906982,2.170283079147339
90,6,00-50,20,20,21.4,second,21.4,1,4.16150689125061,2.258739948272705,2.0923080444335938
91,6,00-50,20,17.6,20,first,17.6,1,3.400650978088379,1.7452669143676758,2.200587034225464
92,6,00-50,20,20,25,first,20,0,2.7659246921539307,2.5192837715148926,2.1791062355041504
93,6,00-50,20,20,18.8,first,20,0,3.2576141357421875,2.8771400451660156,2.5879180431365967
94,6,00-50,20,18.8,20,second,20,0,2.81380295753479,2.9890499114990234,2.1446430683135986
95,6,00-50,20,20,23.1,first,20,0,4.996421813964844,2.811768054962158,2.1724581718444824
96,6,00-50,20,18.8,20,first,18.8,1,1.5653929710388184,2.1192188262939453,2.404413938522339
97,6,00-50,20,20,18.8,second,18.8,1,1.9901938438415527,1.9342396259307861,2.2980892658233643
98,6,00-50,20,21.4,20,second,20,0,2.83581805229187,1.7863249778747559,3.1236720085144043
99,6,00-50,20,23.1,20,second,20,0,2.6626527309417725,3.1967859268188477,2.1080691814422607
100,6,00-50,20,20,23.1,second,23.1,1,3.420646905899048,3.914517879486084,2.1601810455322266
101,6,00-50,20,20,21.4,second,21.4,1,2.7207162380218506,2.47419810295105,2.124481678009033
102,6,00-50,20,25,20,second,20,0,5.444266080856323,2.6479580402374268,2.0989248752593994
103,6,00-50,20,20,25,first,20,0,5.186701059341431,2.802478075027466,2.4255869388580322
104,6,00-50,20,20,16.7,second,16.7,1,6.062999963760376,4.328458070755005,2.300312042236328
105,6,00-50,20,17.6,20,first,17.6,1,4.38365912437439,4.912996292114258,2.2138679027557373
106,6,00-50,20,16.7,20,first,16.7,1,4.330557823181152,3.469205141067505,2.2177109718322754
107,6,00-50,20,20,17.6,second,17.6,1,4.209762096405029,3.6575968265533447,2.358422040939331
108,6,00-10,20,17.6,20,first,17.6,1,4.340957164764404,2.2700538635253906,2.3945460319519043
109,6,00-10,20,20,18.8,second,18.8,1,2.1795620918273926,2.0413501262664795,2.3004939556121826
110,6,00-10,20,20,16.7,second,16.7,1,2.6816391944885254,2.1929409503936768,2.972825765609741
111,6,00-10,20,16.7,20,first,16.7,1,4.952533006668091,2.4399778842926025,2.3724942207336426
112,6,00-10,20,21.4,20,first,21.4,1,3.077702283859253,3.8626790046691895,3.7865049839019775
113,6,00-10,20,20,17.6,second,17.6,1,2.232084035873413,2.3849809169769287,2.796367883682251
114,6,00-10,20,20,21.4,second,21.4,1,4.059595823287964,2.2581288814544678,2.255800247192383
115,6,00-10,20,18.8,20,second,20,0,3.358397960662842,3.6416990756988525,2.3090250492095947
116,6,00-10,20,20,25,second,25,1,3.270596981048584,3.106236219406128,2.33817195892334
117,6,00-10,20,20,23.1,first,20,0,2.7703888416290283,2.474571943283081,2.2202041149139404
118,6,00-10,20,25,20,second,20,0,5.226204872131348,4.345923900604248,2.1077351570129395
119,6,00-10,20,23.1,20,second,20,0,5.617249965667725,4.192911863327026,2.6480050086975098
120,6,00-10,20,18.8,20,second,20,0,2.9507229328155518,2.4834847450256348,2.230520248413086
121,6,00-10,20,20,23.1,first,20,0,3.7623050212860107,4.102615118026733,2.817470073699951
122,6,00-10,20,17.6,20,first,17.6,1,3.6689107418060303,3.282918930053711,2.3052220344543457
123,6,00-10,20,20,18.8,second,18.8,1,3.411195993423462,2.1737680435180664,2.125638961791992
124,6,00-10,20,20,16.7,first,20,0,4.2141571044921875,4.398360252380371,2.3470568656921387
125,6,00-10,20,21.4,20,second,20,0,4.19439697265625,4.615803003311157,2.2793099880218506
126,6,00-10,20,20,21.4,first,20,0,3.7281811237335205,2.092668294906616,2.858475923538208
127,6,00-10,20,23.1,20,second,20,0,5.507093906402588,4.336901903152466,2.2697160243988037
128,6,00-10,20,16.7,20,first,16.7,1,2.8829641342163086,3.0878117084503174,2.8583011627197266
129,6,00-10,20,20,17.6,second,17.6,1,3.53825306892395,2.8005878925323486,2.580435037612915
130,6,00-10,20,20,25,first,20,0,4.124032974243164,3.182623863220215,2.3114113807678223
131,6,00-10,20,25,20,second,20,0,3.057600975036621,3.1369729042053223,2.2463743686676025
132,6,00-10,20,20,17.6,second,17.6,1,1.9695179462432861,2.126142978668213,2.45491099357605
133,6,00-10,20,20,18.8,second,18.8,1,3.5141189098358154,3.762176036834717,2.175412178039551
134,6,00-10,20,20,16.7,second,16.7,1,2.493925094604492,2.965517044067383,3.24170184135437
135,6,00-10,20,21.4,20,second,20,0,3.826267957687378,2.220257043838501,2.2698440551757812
136,6,00-10,20,20,23.1,first,20,0,3.833181142807007,3.2302629947662354,2.206526041030884
137,6,00-10,20,20,21.4,first,20,0,2.8492698669433594,3.5693447589874268,2.235185146331787
138,6,00-10,20,18.8,20,first,18.8,1,4.0245091915130615,4.049850940704346,2.237567901611328
139,6,00-10,20,25,20,second,20,0,4.7846519947052,3.5898730754852295,2.2018940448760986
140,6,00-10,20,23.1,20,second,20,0,2.9345080852508545,3.423704147338867,2.3525350093841553
141,6,00-10,20,16.7,20,second,20,0,3.125852108001709,2.678145170211792,2.2986598014831543
142,6,00-10,20,20,25,first,20,0,2.5652151107788086,2.597306966781616,2.7470381259918213
143,6,00-10,20,17.6,20,first,17.6,1,3.6272647380828857,2.487898111343384,1.9877560138702393
