No. Trial,No. Participant,Softness,Ref Curvature,First Curvature,Second Curvature,Which one more curved,Curvature judged more curved,Comp more curved than ref?,First Exploring Time,Second Exploring Time,Switching Time
0,7,Rigid,10,8.3,10,first,8.3,1,2.6967251300811768,3.1262638568878174,2.6133291721343994
1,7,Rigid,10,11.5,10,second,10,0,3.2941579818725586,2.393484115600586,2.4744479656219482
2,7,Rigid,10,12.5,10,second,10,0,3.7603821754455566,3.9330780506134033,1.954455852508545
3,7,Rigid,10,10,10.7,first,10,0,4.075390338897705,3.5547029972076416,2.541242837905884
4,7,Rigid,10,10.7,10,second,10,0,3.1812500953674316,2.632179021835327,2.0701417922973633
5,7,Rigid,10,10,9.4,second,9.4,1,3.459684133529663,5.684412956237793,2.6888229846954346
6,7,Rigid,10,10,8.8,second,8.8,1,3.2722151279449463,2.526237964630127,2.7461230754852295
7,7,Rigid,10,8.8,10,first,8.8,1,3.82171893119812,2.224126100540161,2.0433030128479004
8,7,Rigid,10,10,11.5,first,10,0,2.920804738998413,2.701854944229126,2.150740385055542
9,7,Rigid,10,10,12.5,first,10,0,2.8803529739379883,2.4531149864196777,2.190793037414551
10,7,Rigid,10,10,8.3,second,8.3,1,3.025062084197998,2.8402559757232666,2.394207000732422
11,7,Rigid,10,9.4,10,first,9.4,1,3.3857290744781494,1.7992010116577148,2.312580108642578
