No. Trial,No. Participant,Softness,Ref Curvature,First Curvature,Second Curvature,Which one more curved,Curvature judged more curved,Comp more curved than ref?,First Exploring Time,Second Exploring Time,Switching Time
0,3,Rigid,40,34.5,40,first,34.5,1,8.46198034286499,1.983590841293335,0.4666118621826172
1,3,Rigid,40,37.0,40,first,37.0,1,4.733757972717285,3.333515167236328,2.583218812942505
2,3,Rigid,40,40,47.6,first,40,0,4.016779899597168,5.399101972579956,2.4337661266326904
3,3,Rigid,40,40,37.0,first,40,0,3.7670767307281494,6.334195852279663,2.682319164276123
4,3,Rigid,40,52.6,40,second,40,0,3.5835251808166504,4.983999013900757,2.5492658615112305
5,3,Rigid,40,40,32.3,second,32.3,1,8.050150871276855,4.416351079940796,2.0668158531188965
6,3,Rigid,40,47.6,40,first,47.6,1,4.7492780685424805,5.333164930343628,3.30023193359375
7,3,Rigid,40,43.5,40,first,43.5,1,4.549728155136108,4.250602960586548,2.2999610900878906
8,3,Rigid,40,40,52.6,first,40,0,4.333039999008179,3.233553886413574,2.4667441844940186
9,3,Rigid,40,40,34.5,second,34.5,1,4.583690881729126,3.7673611640930176,2.6994431018829346
10,3,Rigid,40,32.3,40,first,32.3,1,4.0170738697052,3.200795888900757,2.0989701747894287
11,3,Rigid,40,40,43.5,second,43.5,1,3.8336472511291504,3.5827481746673584,2.133309841156006
12,3,Rigid,40,40,34.5,second,34.5,1,4.299769878387451,3.7160959243774414,2.116595983505249
13,3,Rigid,40,34.5,40,first,34.5,1,3.717478036880493,4.200330972671509,2.0830748081207275
14,3,Rigid,40,47.6,40,second,40,0,3.715998888015747,4.6649298667907715,2.3350791931152344
15,3,Rigid,40,37.0,40,first,37.0,1,4.73392391204834,5.583958148956299,2.0494210720062256
16,3,Rigid,40,40,32.3,second,32.3,1,4.033441066741943,5.134593963623047,2.4499990940093994
17,3,Rigid,40,32.3,40,first,32.3,1,3.7996299266815186,3.216480016708374,2.23388409614563
18,3,Rigid,40,40,47.6,first,40,0,4.1495201587677,5.099836111068726,2.3667168617248535
19,3,Rigid,40,40,52.6,first,40,0,4.350285053253174,3.38356614112854,2.200031042098999
20,3,Rigid,40,40,37.0,first,40,0,3.800307035446167,3.4494380950927734,2.2168128490448
21,3,Rigid,40,40,43.5,second,43.5,1,4.416231155395508,3.7496540546417236,2.233693838119507
22,3,Rigid,40,52.6,40,second,40,0,4.317298889160156,3.933830976486206,2.232710123062134
23,3,Rigid,40,43.5,40,first,43.5,1,3.7491698265075684,4.366248846054077,2.317099094390869
24,3,Rigid,40,40,32.3,first,40,0,3.6000218391418457,3.9826529026031494,2.1837451457977295
25,3,Rigid,40,40,37.0,second,37.0,1,4.016057014465332,3.382596254348755,1.7839999198913574
26,3,Rigid,40,40,34.5,second,34.5,1,3.8329989910125732,1.8669021129608154,3.5003678798675537
27,3,Rigid,40,52.6,40,second,40,0,3.7828500270843506,2.2506492137908936,2.483215808868408
28,3,Rigid,40,40,52.6,first,40,0,3.983020067214966,5.098990201950073,2.4009718894958496
29,3,Rigid,40,40,47.6,first,40,0,4.949588060379028,3.7158708572387695,2.3000380992889404
30,3,Rigid,40,40,43.5,second,43.5,1,3.600701332092285,4.116776943206787,2.1830978393554688
31,3,Rigid,40,47.6,40,first,47.6,1,4.116344213485718,3.732707977294922,2.583958864212036
32,3,Rigid,40,32.3,40,first,32.3,1,4.065235137939453,3.4005720615386963,2.383340835571289
33,3,Rigid,40,43.5,40,first,43.5,1,2.783097982406616,3.2328219413757324,2.5671629905700684
34,3,Rigid,40,34.5,40,first,34.5,1,3.500459909439087,4.001256942749023,2.3161749839782715
35,3,Rigid,40,37.0,40,second,40,0,3.6663622856140137,3.732638120651245,2.1346018314361572
36,3,00-10,40,32.3,40,second,40,0,3.282839775085449,4.848904848098755,3.8343143463134766
37,3,00-10,40,47.6,40,second,40,0,4.8164942264556885,3.816077947616577,2.2008447647094727
38,3,00-10,40,40,37.0,second,37.0,1,3.4844610691070557,3.333091974258423,2.34920597076416
39,3,00-10,40,52.6,40,first,52.6,1,3.5668342113494873,3.783993721008301,2.6326379776000977
40,3,00-10,40,40,47.6,first,40,0,3.0837738513946533,3.5006399154663086,2.2326810359954834
41,3,00-10,40,40,32.3,second,32.3,1,3.9168550968170166,2.649484157562256,2.1335411071777344
42,3,00-10,40,40,43.5,second,43.5,1,3.3329169750213623,3.1662299633026123,2.483708381652832
43,3,00-10,40,40,52.6,second,52.6,1,3.567107915878296,3.315319061279297,2.2507970333099365
44,3,00-10,40,43.5,40,first,43.5,1,4.317158937454224,4.834046840667725,2.366190195083618
45,3,00-10,40,40,34.5,second,34.5,1,4.248986005783081,4.049596786499023,2.983682155609131
46,3,00-10,40,37.0,40,second,40,0,4.150763034820557,4.833173990249634,2.349842071533203
47,3,00-10,40,34.5,40,first,34.5,1,4.532411098480225,3.9324870109558105,2.4508190155029297
48,3,00-10,40,40,34.5,second,34.5,1,4.315644979476929,3.5662899017333984,2.1336669921875
49,3,00-10,40,40,37.0,first,40,0,3.8843138217926025,3.683612823486328,2.565692186355591
50,3,00-10,40,37.0,40,first,37.0,1,3.7825679779052734,3.4010398387908936,2.4333560466766357
51,3,00-10,40,40,47.6,first,40,0,4.482863664627075,3.3500521183013916,2.500483274459839
52,3,00-10,40,40,52.6,second,52.6,1,5.533365964889526,2.4320969581604004,3.500389814376831
53,3,00-10,40,40,43.5,second,43.5,1,3.450165033340454,4.2674219608306885,2.4484400749206543
54,3,00-10,40,52.6,40,second,40,0,3.667736053466797,4.13280987739563,2.716191053390503
55,3,00-10,40,43.5,40,first,43.5,1,4.616223096847534,4.747772216796875,2.668996810913086
56,3,00-10,40,34.5,40,first,34.5,1,4.466326951980591,4.816164016723633,2.433022975921631
57,3,00-10,40,32.3,40,first,32.3,1,4.784024000167847,3.8494768142700195,2.3657140731811523
58,3,00-10,40,40,32.3,second,32.3,1,3.6853580474853516,4.667675018310547,2.4812450408935547
59,3,00-10,40,47.6,40,second,40,0,4.6500678062438965,3.5506839752197266,2.4499411582946777
60,3,00-10,40,40,32.3,first,40,0,4.682374954223633,3.6491591930389404,2.267518997192383
61,3,00-10,40,34.5,40,first,34.5,1,2.716855049133301,2.6844570636749268,2.2664010524749756
62,3,00-10,40,40,37.0,second,37.0,1,4.700051307678223,3.6840882301330566,2.433253765106201
63,3,00-10,40,40,47.6,first,40,0,3.883727788925171,5.183923959732056,2.3996851444244385
64,3,00-10,40,52.6,40,second,40,0,3.7332189083099365,3.1495919227600098,2.3334591388702393
65,3,00-10,40,40,43.5,first,40,0,3.765888214111328,3.7996208667755127,2.3170437812805176
66,3,00-10,40,40,52.6,first,40,0,3.998683214187622,3.534287929534912,1.9501209259033203
67,3,00-10,40,32.3,40,second,40,0,3.4163718223571777,5.366868019104004,2.6666901111602783
68,3,00-10,40,40,34.5,first,40,0,4.434535980224609,3.6178770065307617,2.715428113937378
69,3,00-10,40,43.5,40,second,40,0,2.617440938949585,3.466209888458252,2.499567985534668
70,3,00-10,40,47.6,40,second,40,0,3.350098133087158,3.249756097793579,2.9339828491210938
71,3,00-10,40,37.0,40,second,40,0,3.7160041332244873,3.8842082023620605,2.7332890033721924
72,3,A-30,40,40,52.6,first,40,0,3.583184003829956,2.8655459880828857,2.451117753982544
73,3,A-30,40,52.6,40,second,40,0,3.7164249420166016,3.615903854370117,2.1338021755218506
74,3,A-30,40,40,47.6,first,40,0,4.434175968170166,4.267526865005493,2.3989851474761963
75,3,A-30,40,40,34.5,second,34.5,1,3.8003787994384766,3.1525092124938965,2.9654929637908936
76,3,A-30,40,43.5,40,second,40,0,2.901226043701172,2.8000330924987793,2.498767852783203
77,3,A-30,40,47.6,40,second,40,0,3.3661389350891113,3.1502130031585693,2.2507619857788086
78,3,A-30,40,37.0,40,second,40,0,3.6345694065093994,3.434004068374634,2.298856735229492
79,3,A-30,40,40,37.0,second,37.0,1,3.9327218532562256,4.082864046096802,2.633857011795044
80,3,A-30,40,32.3,40,second,40,0,3.2176589965820312,3.7510268688201904,2.232227087020874
81,3,A-30,40,34.5,40,first,34.5,1,4.7335498332977295,4.3330442905426025,2.8493969440460205
82,3,A-30,40,40,43.5,first,40,0,4.400071859359741,3.78406023979187,2.6833300590515137
83,3,A-30,40,40,32.3,second,32.3,1,3.7842962741851807,3.0177769660949707,2.2489657402038574
84,3,A-30,40,32.3,40,first,32.3,1,2.483325958251953,3.4179482460021973,2.215472936630249
85,3,A-30,40,43.5,40,second,40,0,3.6654860973358154,3.867608070373535,2.1502299308776855
86,3,A-30,40,47.6,40,second,40,0,4.183350086212158,4.400557041168213,2.3166792392730713
87,3,A-30,40,40,37.0,second,37.0,1,4.234999179840088,4.467092990875244,2.5649468898773193
88,3,A-30,40,40,52.6,first,40,0,4.7649359703063965,3.499542236328125,2.684476852416992
89,3,A-30,40,40,32.3,second,32.3,1,5.466127872467041,3.7668910026550293,2.349735736846924
90,3,A-30,40,40,34.5,second,34.5,1,3.884735107421875,4.06641411781311,2.5323309898376465
91,3,A-30,40,37.0,40,first,37.0,1,2.548959970474243,4.067739009857178,2.332792043685913
92,3,A-30,40,52.6,40,second,40,0,2.101519823074341,3.4166982173919678,2.681859016418457
93,3,A-30,40,40,43.5,first,40,0,4.248814105987549,3.949542284011841,2.5670087337493896
94,3,A-30,40,34.5,40,second,40,0,4.084460020065308,3.6161038875579834,2.3163840770721436
95,3,A-30,40,40,47.6,first,40,0,4.332565069198608,3.7823140621185303,2.650965929031372
96,3,A-30,40,43.5,40,second,40,0,3.9342966079711914,4.366650819778442,2.4825022220611572
97,3,A-30,40,47.6,40,second,40,0,3.7006449699401855,4.216634750366211,2.4154810905456543
98,3,A-30,40,40,32.3,second,32.3,1,4.4154579639434814,4.28326678276062,2.2342960834503174
99,3,A-30,40,40,43.5,first,40,0,4.199872970581055,3.1343700885772705,2.732923746109009
100,3,A-30,40,40,37.0,first,40,0,4.467566728591919,4.484132766723633,2.515512228012085
101,3,A-30,40,34.5,40,second,40,0,4.8998589515686035,3.6672298908233643,2.4162230491638184
102,3,A-30,40,32.3,40,first,32.3,1,3.9154818058013916,3.749328851699829,2.4840171337127686
103,3,A-30,40,52.6,40,second,40,0,3.4659619331359863,3.2520360946655273,2.6666948795318604
104,3,A-30,40,37.0,40,second,40,0,3.2667837142944336,3.7166171073913574,2.3834421634674072
105,3,A-30,40,40,52.6,first,40,0,3.632680892944336,3.1488373279571533,3.9677958488464355
106,3,A-30,40,40,34.5,second,34.5,1,3.3342087268829346,3.7171740531921387,2.2655930519104004
107,3,A-30,40,40,47.6,first,40,0,3.3334450721740723,4.2824859619140625,2.517354965209961
108,3,00-50,40,43.5,40,first,43.5,1,3.666778802871704,3.848513126373291,2.1846840381622314
109,3,00-50,40,40,37.0,second,37.0,1,4.184178113937378,3.998507022857666,2.7172858715057373
110,3,00-50,40,40,43.5,second,43.5,1,5.849148750305176,4.18186616897583,2.3679940700531006
111,3,00-50,40,40,34.5,second,34.5,1,3.9505560398101807,4.417294025421143,2.5327978134155273
112,3,00-50,40,52.6,40,second,40,0,4.949975967407227,4.515610218048096,2.2849297523498535
113,3,00-50,40,37.0,40,first,37.0,1,4.218212127685547,3.4826040267944336,2.216657876968384
114,3,00-50,40,40,32.3,second,32.3,1,4.166586875915527,4.282805919647217,2.5003650188446045
115,3,00-50,40,40,52.6,first,40,0,3.8329720497131348,3.3498129844665527,3.1170408725738525
116,3,00-50,40,47.6,40,second,40,0,3.648430824279785,3.517582893371582,2.2333192825317383
117,3,00-50,40,32.3,40,first,32.3,1,4.749221086502075,5.499452829360962,2.33332896232605
118,3,00-50,40,40,47.6,second,47.6,1,4.11813497543335,4.69842791557312,2.3837780952453613
119,3,00-50,40,34.5,40,second,40,0,4.933980941772461,4.149914979934692,3.099364995956421
120,3,00-50,40,34.5,40,second,40,0,3.467261791229248,3.0826940536499023,2.583116054534912
121,3,00-50,40,40,47.6,second,47.6,1,3.6653499603271484,3.317246913909912,2.516746997833252
122,3,00-50,40,37.0,40,second,40,0,4.25091290473938,3.683866262435913,2.5824239253997803
123,3,00-50,40,40,43.5,second,43.5,1,3.6834561824798584,3.8322489261627197,2.9843499660491943
124,3,00-50,40,40,34.5,second,34.5,1,4.083946228027344,4.247932195663452,2.5017318725585938
125,3,00-50,40,43.5,40,second,40,0,4.218513011932373,4.133975982666016,2.415395975112915
126,3,00-50,40,32.3,40,second,40,0,3.91870379447937,3.6837172508239746,2.8311691284179688
127,3,00-50,40,40,52.6,first,40,0,3.148944854736328,3.300290107727051,2.7166221141815186
128,3,00-50,40,40,37.0,second,37.0,1,3.4331068992614746,3.6337127685546875,2.7667481899261475
129,3,00-50,40,52.6,40,second,40,0,4.068103075027466,4.199976205825806,2.6152889728546143
130,3,00-50,40,47.6,40,first,47.6,1,5.065828084945679,3.799201011657715,2.2508769035339355
131,3,00-50,40,40,32.3,second,32.3,1,3.8829257488250732,3.3349969387054443,2.6999711990356445
132,3,00-50,40,40,43.5,first,40,0,2.9659857749938965,3.5666921138763428,2.0823731422424316
133,3,00-50,40,43.5,40,first,43.5,1,4.551477909088135,4.217231035232544,2.3153631687164307
134,3,00-50,40,47.6,40,first,47.6,1,3.9176440238952637,3.8181018829345703,2.4479880332946777
135,3,00-50,40,40,37.0,second,37.0,1,4.033869981765747,3.7503418922424316,2.7496981620788574
136,3,00-50,40,32.3,40,first,32.3,1,5.1999640464782715,4.0156731605529785,2.7994308471679688
137,3,00-50,40,40,52.6,first,40,0,3.5167927742004395,3.882838010787964,2.6173083782196045
138,3,00-50,40,40,47.6,first,40,0,3.502142906188965,3.801470994949341,2.581956148147583
139,3,00-50,40,40,32.3,second,32.3,1,4.150012731552124,4.533639192581177,2.5999581813812256
140,3,00-50,40,40,34.5,second,34.5,1,3.4178590774536133,3.850180149078369,2.481879711151123
141,3,00-50,40,34.5,40,first,34.5,1,4.066670894622803,3.4155478477478027,2.9179720878601074
142,3,00-50,40,52.6,40,second,40,0,3.432727098464966,3.097775936126709,2.3858580589294434
143,3,00-50,40,37.0,40,second,40,0,3.1836962699890137,6.249299049377441,2.384424924850464
