No. Trial,No. Participant,Softness,Ref Curvature,First Curvature,Second Curvature,Which one more curved,Curvature judged more curved,Comp more curved than ref?,First Exploring Time,Second Exploring Time,Switching Time
288,4,00-10,20,25,20,second,20,0,3.6008810997009277,2.9274702072143555,3.0852718353271484
289,4,00-10,20,16.7,20,first,16.7,1,4.006086826324463,2.5301098823547363,2.398989200592041
290,4,00-10,20,23.1,20,first,23.1,1,4.400981903076172,3.8182132244110107,2.8911449909210205
291,4,00-10,20,20,17.6,second,17.6,1,2.709149122238159,2.8132669925689697,3.3170039653778076
292,4,00-10,20,20,16.7,second,16.7,1,3.6078128814697266,3.372084140777588,2.3820559978485107
293,4,00-10,20,17.6,20,first,17.6,1,4.62317419052124,2.0770959854125977,2.429032802581787
294,4,00-10,20,20,18.8,second,18.8,1,3.4556641578674316,3.5018908977508545,2.264206886291504
295,4,00-10,20,20,23.1,first,20,0,3.353879690170288,2.8046038150787354,2.5477402210235596
296,4,00-10,20,20,25,first,20,0,3.0961410999298096,2.555697202682495,2.609285831451416
297,4,00-10,20,18.8,20,first,18.8,1,3.6479151248931885,3.0684871673583984,2.2188479900360107
298,4,00-10,20,21.4,20,second,20,0,3.376235008239746,2.5277907848358154,2.465529203414917
299,4,00-10,20,20,21.4,second,21.4,1,3.0917680263519287,4.205008029937744,2.486780881881714
300,4,00-10,20,20,18.8,second,18.8,1,3.4646570682525635,3.0544681549072266,2.3452539443969727
301,4,00-10,20,18.8,20,first,18.8,1,3.9641599655151367,2.575266122817993,2.4279909133911133
302,4,00-10,20,20,16.7,second,16.7,1,3.7335169315338135,2.997199773788452,2.6821770668029785
303,4,00-10,20,23.1,20,second,20,0,4.305670261383057,2.879102945327759,2.5477969646453857
304,4,00-10,20,25,20,second,20,0,5.427851915359497,2.663377046585083,2.2315828800201416
305,4,00-10,20,20,17.6,first,20,0,4.011874675750732,2.1846489906311035,2.638401985168457
306,4,00-10,20,21.4,20,first,21.4,1,2.7205429077148438,2.7420969009399414,2.5418190956115723
307,4,00-10,20,16.7,20,first,16.7,1,3.207137107849121,2.4964020252227783,2.6398890018463135
308,4,00-10,20,20,23.1,first,20,0,2.843428134918213,3.647815227508545,2.181586980819702
309,4,00-10,20,17.6,20,first,17.6,1,3.28256893157959,2.0002639293670654,2.641892194747925
310,4,00-10,20,20,21.4,second,21.4,1,5.648437976837158,3.6651530265808105,2.5598158836364746
311,4,00-10,20,20,25,first,20,0,4.4875710010528564,2.0906028747558594,2.4970901012420654
312,4,00-10,20,25,20,second,20,0,2.7136588096618652,3.502908945083618,2.1528382301330566
313,4,00-10,20,20,16.7,second,16.7,1,2.8523929119110107,2.2855730056762695,2.827569007873535
314,4,00-10,20,20,23.1,second,23.1,1,2.97182297706604,3.8493051528930664,2.41999888420105
315,4,00-10,20,23.1,20,first,23.1,1,3.0076239109039307,3.026310920715332,2.504859209060669
316,4,00-10,20,20,21.4,first,20,0,3.525325059890747,3.88850998878479,2.859086036682129
317,4,00-10,20,17.6,20,second,20,0,3.5546751022338867,3.494117259979248,2.6609418392181396
318,4,00-10,20,16.7,20,first,16.7,1,2.6960668563842773,2.860581874847412,2.59660005569458
319,4,00-10,20,20,18.8,second,18.8,1,3.166846990585327,3.370004177093506,2.2065558433532715
320,4,00-10,20,21.4,20,first,21.4,1,3.03250789642334,3.128242015838623,2.511842966079712
321,4,00-10,20,18.8,20,first,18.8,1,3.488647937774658,2.1955361366271973,2.7318131923675537
322,4,00-10,20,20,17.6,second,17.6,1,2.834980010986328,3.6082117557525635,2.9798552989959717
323,4,00-10,20,20,25,first,20,0,2.6122660636901855,2.80281400680542,2.5831949710845947
324,4,00-50,20,20,18.8,first,20,0,14.297341108322144,1.8759589195251465,2.6535909175872803
325,4,00-50,20,21.4,20,second,20,0,2.8806228637695312,3.3539769649505615,2.3583359718322754
326,4,00-50,20,23.1,20,first,23.1,1,3.7845139503479004,3.715437173843384,2.449251890182495
327,4,00-50,20,17.6,20,second,20,0,4.27022910118103,3.7629899978637695,2.396730899810791
328,4,00-50,20,20,16.7,second,16.7,1,3.480564832687378,4.542317152023315,2.309480905532837
329,4,00-50,20,20,23.1,first,20,0,3.514939069747925,5.038810968399048,2.2018678188323975
330,4,00-50,20,25,20,second,20,0,3.8722317218780518,4.323521852493286,2.312263250350952
331,4,00-50,20,20,17.6,first,20,0,3.95786190032959,3.1344330310821533,2.40873384475708
332,4,00-50,20,16.7,20,second,20,0,4.48996901512146,4.497615814208984,2.436950206756592
333,4,00-50,20,18.8,20,first,18.8,1,3.227091073989868,2.2358059883117676,2.1981570720672607
334,4,00-50,20,20,25,first,20,0,2.9101080894470215,3.6534810066223145,2.341723918914795
335,4,00-50,20,20,21.4,first,20,0,2.6641669273376465,3.006639003753662,3.369774103164673
336,4,00-50,20,20,17.6,second,17.6,1,3.350738048553467,3.4956490993499756,2.14216685295105
337,4,00-50,20,23.1,20,second,20,0,3.3652591705322266,1.8799800872802734,2.179428815841675
338,4,00-50,20,20,23.1,first,20,0,3.452336072921753,4.160834789276123,2.2858259677886963
339,4,00-50,20,17.6,20,second,20,0,4.111281871795654,3.8380818367004395,2.53389310836792
340,4,00-50,20,16.7,20,second,20,0,4.749924182891846,2.69155216217041,2.751218795776367
341,4,00-50,20,25,20,second,20,0,3.571153163909912,2.4800567626953125,2.1769800186157227
342,4,00-50,20,20,25,second,25,1,3.7972359657287598,6.205414295196533,1.7228007316589355
343,4,00-50,20,20,16.7,second,16.7,1,4.095188140869141,2.6485989093780518,2.702741861343384
344,4,00-50,20,20,21.4,second,21.4,1,3.623433828353882,2.8427891731262207,2.405805826187134
345,4,00-50,20,20,18.8,second,18.8,1,4.523908853530884,2.8087921142578125,2.2397539615631104
346,4,00-50,20,21.4,20,second,20,0,4.345810890197754,3.8597350120544434,2.422985076904297
347,4,00-50,20,18.8,20,first,18.8,1,3.7781388759613037,3.0004189014434814,2.4654300212860107
348,4,00-50,20,20,18.8,second,18.8,1,2.655736207962036,3.8148529529571533,2.14877986907959
349,4,00-50,20,17.6,20,second,20,0,2.916177272796631,3.186396837234497,2.3128890991210938
350,4,00-50,20,21.4,20,second,20,0,4.663378000259399,3.4465930461883545,2.2218480110168457
351,4,00-50,20,25,20,second,20,0,5.08919882774353,3.3651740550994873,2.174010992050171
352,4,00-50,20,20,16.7,second,16.7,1,3.772233247756958,4.905092000961304,2.5027239322662354
353,4,00-50,20,20,21.4,first,20,0,3.8161520957946777,3.198728084564209,2.853543996810913
354,4,00-50,20,16.7,20,second,20,0,3.8945088386535645,3.212308883666992,4.053329229354858
355,4,00-50,20,20,23.1,first,20,0,3.89886212348938,4.290050029754639,2.8835031986236572
356,4,00-50,20,20,17.6,second,17.6,1,3.3863627910614014,3.9713101387023926,2.3356399536132812
357,4,00-50,20,23.1,20,second,20,0,3.231837034225464,3.4751510620117188,3.359423875808716
358,4,00-50,20,18.8,20,first,18.8,1,3.5570669174194336,2.8632378578186035,2.161295175552368
359,4,00-50,20,20,25,first,20,0,3.499523878097534,2.777308940887451,2.737502098083496
360,4,Rigid,20,25,20,second,20,0,3.0957138538360596,2.857154607772827,2.1002461910247803
361,4,Rigid,20,20,21.4,second,21.4,1,2.884220838546753,3.753509998321533,2.275123119354248
362,4,Rigid,20,18.8,20,second,20,0,3.852264881134033,3.905233860015869,2.497403144836426
363,4,Rigid,20,20,18.8,second,18.8,1,2.563627004623413,3.1987316608428955,2.666788101196289
364,4,Rigid,20,20,17.6,first,20,0,3.5019569396972656,2.1090710163116455,2.6479129791259766
365,4,Rigid,20,20,16.7,second,16.7,1,3.414947986602783,2.685839891433716,2.3258960247039795
366,4,Rigid,20,17.6,20,second,20,0,3.682708978652954,4.2858099937438965,2.1142258644104004
367,4,Rigid,20,16.7,20,first,16.7,1,3.257253885269165,4.230499029159546,2.128951072692871
368,4,Rigid,20,20,25,first,20,0,2.6069447994232178,2.441883087158203,2.5553178787231445
369,4,Rigid,20,21.4,20,second,20,0,3.6324269771575928,2.816915988922119,2.4297080039978027
370,4,Rigid,20,20,23.1,first,20,0,3.234241247177124,2.895421028137207,2.5041987895965576
371,4,Rigid,20,23.1,20,second,20,0,2.696848154067993,1.9408819675445557,2.3451709747314453
372,4,Rigid,20,20,23.1,second,23.1,1,2.815481185913086,2.7664501667022705,2.311001777648926
373,4,Rigid,20,25,20,second,20,0,2.4573240280151367,3.052673101425171,2.8641979694366455
374,4,Rigid,20,17.6,20,second,20,0,3.26468563079834,4.617688894271851,2.3715481758117676
375,4,Rigid,20,23.1,20,second,20,0,3.143551826477051,3.5977001190185547,2.325885057449341
376,4,Rigid,20,18.8,20,second,20,0,3.1335248947143555,2.7440712451934814,2.2974729537963867
377,4,Rigid,20,20,17.6,second,17.6,1,2.9866132736206055,3.028014898300171,3.401711940765381
378,4,Rigid,20,20,21.4,first,20,0,3.131787061691284,2.4208498001098633,2.375214099884033
379,4,Rigid,20,20,18.8,first,20,0,2.8300039768218994,4.177526950836182,2.579075813293457
380,4,Rigid,20,20,25,first,20,0,2.1301088333129883,2.313781976699829,2.4103081226348877
381,4,Rigid,20,20,16.7,second,16.7,1,2.288872003555298,2.183650016784668,2.3280229568481445
382,4,Rigid,20,21.4,20,first,21.4,1,4.539607763290405,3.8869969844818115,2.378674268722534
383,4,Rigid,20,16.7,20,first,16.7,1,3.861319065093994,2.3886971473693848,2.3137710094451904
384,4,Rigid,20,20,23.1,first,20,0,2.6314711570739746,2.221264123916626,2.6141598224639893
385,4,Rigid,20,20,18.8,second,18.8,1,3.897030830383301,2.2256369590759277,2.049009084701538
386,4,Rigid,20,20,17.6,second,17.6,1,2.420098066329956,2.981860876083374,2.3931047916412354
387,4,Rigid,20,23.1,20,second,20,0,3.0206410884857178,3.254286050796509,2.4792351722717285
388,4,Rigid,20,18.8,20,second,20,0,3.3590879440307617,3.6911659240722656,2.4935290813446045
389,4,Rigid,20,20,25,first,20,0,3.4861562252044678,2.6254210472106934,2.363184690475464
390,4,Rigid,20,16.7,20,second,20,0,2.611133098602295,3.777501106262207,2.5350940227508545
391,4,Rigid,20,21.4,20,second,20,0,4.425198078155518,3.223581075668335,2.217625856399536
392,4,Rigid,20,20,16.7,second,16.7,1,3.5586421489715576,2.852691173553467,2.5483877658843994
393,4,Rigid,20,17.6,20,second,20,0,4.052835702896118,4.276608943939209,2.4064431190490723
394,4,Rigid,20,20,21.4,second,21.4,1,4.43670392036438,4.100520849227905,2.4519102573394775
395,4,Rigid,20,25,20,second,20,0,3.4097087383270264,2.2977817058563232,3.053450345993042
396,4,A-30,20,23.1,20,second,20,0,2.439056158065796,2.717005729675293,2.0308401584625244
397,4,A-30,20,21.4,20,second,20,0,2.719135046005249,3.6407530307769775,2.37502384185791
398,4,A-30,20,20,25,first,20,0,2.8749070167541504,3.4686288833618164,2.405618190765381
399,4,A-30,20,16.7,20,first,16.7,1,2.3510191440582275,5.169218063354492,2.4049699306488037
400,4,A-30,20,20,16.7,second,16.7,1,2.54086971282959,0.6555647850036621,2.8632571697235107
401,4,A-30,20,20,17.6,second,17.6,1,3.7719223499298096,2.769561290740967,2.4284257888793945
402,4,A-30,20,20,23.1,first,20,0,2.9448540210723877,2.970661163330078,2.493316888809204
403,4,A-30,20,20,21.4,first,20,0,2.8641128540039062,5.863319158554077,2.513101100921631
404,4,A-30,20,25,20,second,20,0,3.4352667331695557,2.2811641693115234,2.3092479705810547
405,4,A-30,20,18.8,20,first,18.8,1,2.989555835723877,3.394451856613159,2.4678070545196533
406,4,A-30,20,17.6,20,first,17.6,1,3.407979965209961,2.0610921382904053,2.2854950428009033
407,4,A-30,20,20,18.8,second,18.8,1,3.379401206970215,4.116231918334961,2.462185859680176
408,4,A-30,20,20,17.6,first,20,0,1.8791179656982422,3.0612940788269043,2.529681921005249
409,4,A-30,20,20,16.7,second,16.7,1,3.3193132877349854,6.38347601890564,0.1262068748474121
410,4,A-30,20,18.8,20,second,20,0,3.5992608070373535,2.737273931503296,2.361410140991211
411,4,A-30,20,17.6,20,second,20,0,4.7153589725494385,3.930830717086792,2.3685121536254883
412,4,A-30,20,20,25,first,20,0,3.1092910766601562,3.218290328979492,2.5317728519439697
413,4,A-30,20,23.1,20,second,20,0,5.538380146026611,3.188704013824463,2.619843006134033
414,4,A-30,20,25,20,second,20,0,3.8259918689727783,4.795118093490601,2.6301450729370117
415,4,A-30,20,20,21.4,first,20,0,3.7507660388946533,3.1490979194641113,2.5687999725341797
416,4,A-30,20,20,18.8,first,20,0,2.7139320373535156,3.373195171356201,2.453756809234619
417,4,A-30,20,20,23.1,first,20,0,4.135414123535156,4.09235405921936,2.5568950176239014
418,4,A-30,20,21.4,20,second,20,0,3.4793472290039062,3.259506940841675,2.229365110397339
419,4,A-30,20,16.7,20,second,20,0,2.51788592338562,2.769052743911743,2.258958101272583
420,4,A-30,20,20,16.7,second,16.7,1,4.126427888870239,3.446937084197998,2.435541868209839
421,4,A-30,20,18.8,20,first,18.8,1,3.8790390491485596,3.335759162902832,2.1340079307556152
422,4,A-30,20,20,23.1,second,23.1,1,3.6076691150665283,4.112719774246216,2.4962618350982666
423,4,A-30,20,21.4,20,first,21.4,1,3.839704751968384,3.9345662593841553,2.50632905960083
424,4,A-30,20,20,17.6,second,17.6,1,3.4839842319488525,5.539638042449951,2.579047918319702
425,4,A-30,20,20,25,first,20,0,4.337992906570435,2.841269016265869,3.119929790496826
426,4,A-30,20,23.1,20,second,20,0,2.5675411224365234,2.4055380821228027,2.9069929122924805
427,4,A-30,20,25,20,first,25,1,3.899304151535034,2.255460262298584,2.519843816757202
428,4,A-30,20,17.6,20,first,17.6,1,5.448357820510864,2.9857802391052246,2.258725881576538
429,4,A-30,20,20,18.8,second,18.8,1,3.690779209136963,3.1653311252593994,2.761047840118408
430,4,A-30,20,20,21.4,first,20,0,4.092735052108765,2.918492078781128,2.6217710971832275
431,4,A-30,20,16.7,20,first,16.7,1,2.81564998626709,2.1676928997039795,2.292525053024292
